QRNG/XilinxProject/I2C/.Xil/Vivado-16428-DESKTOP-FSTTAJ6/hw_ila_data_1/zip_work/waveform.vcd
$date
        2021-Aug-09 18:56:03
$end
$version
        Vivado v2019.1 (64-bit)
$end
$timescale
        1ps
$end
$scope module dut $end
$var reg 1 " design_1_i/cis_vsync_1 $end
$var reg 1 # design_1_i/cis_hsync_1 $end
$var reg 1 $ design_1_i/cis_pclk_1 $end
$var reg 8 % design_1_i/cis_d_1 [7:0] $end
$var reg 32 - design_1_i/CIS_test_0_o_hsync_cnt [31:0] $end
$var reg 32 M design_1_i/CIS_test_0_o_pclk_cnt [31:0] $end
$var reg 1 m _TRIGGER $end
$var reg 1 n _WINDOW $end
$var reg 1 o _GAP $end
$upscope $end
$enddefinitions $end
#0
$dumpvars
1"
1#
0$
b101000 %
b100011101111 -
b110011001010010000000 M
0m
1n
0o
$end
#1
1$
b111110 %
b110011001010010000010 M
#2
0$
b11101 %
b110011001010010000011 M
#3
1$
b1000 %
b110011001010010000101 M
#4
0$
b100011 %
b110011001010010000110 M
#5
1$
b11101 %
b110011001010010001000 M
#6
0$
b11110 %
b110011001010010001001 M
#7
1$
b101000 %
b110011001010010001011 M
#8
0$
b100011 %
b110011001010010001100 M
#9
1$
b11110 %
b110011001010010001110 M
#10
0$
b110011001010010001111 M
#11
1$
b100011 %
b110011001010010010001 M
#12
0$
b110011001010010010010 M
#13
1$
b10111 %
b110011001010010010100 M
#14
0$
b11111 %
b110011001010010010101 M
#15
1$
b101000 %
b110011001010010010111 M
#16
0$
b100011 %
b110011001010010011000 M
#17
1$
b10111 %
b110011001010010011010 M
#18
0$
b110011001010010011011 M
#19
1$
b101000 %
b110011001010010011101 M
#20
0$
b110011001010010011110 M
#21
1$
b10111 %
b110011001010010100000 M
#22
0$
b10000 %
b110011001010010100001 M
#23
1$
b100011 %
b110011001010010100011 M
#24
0$
b100001 %
b110011001010010100100 M
#25
1$
b10110 %
b110011001010010100110 M
#26
0$
b10111 %
b110011001010010100111 M
#27
1$
b100011 %
b110011001010010101001 M
#28
0$
b100000 %
b110011001010010101010 M
#29
b11101 %
b110011001010010101011 M
#30
1$
b10100 %
b110011001010010101101 M
#31
0$
b100011 %
b110011001010010101110 M
#32
1$
b100001 %
b110011001010010110000 M
#33
0$
b10111 %
b110011001010010110001 M
#34
1$
b11111 %
b110011001010010110011 M
#35
0$
b100010 %
b110011001010010110100 M
#36
1$
b111100 %
b110011001010010110110 M
#37
0$
b10111 %
b110011001010010110111 M
#38
1$
b100011 %
b110011001010010111001 M
#39
0$
b101000 %
b110011001010010111010 M
#40
1$
b10100 %
b110011001010010111100 M
#41
0$
b110011001010010111101 M
#42
1$
b100011 %
b110011001010010111111 M
#43
0$
b110011001010011000000 M
#44
1$
b10100 %
b110011001010011000010 M
#45
0$
b110011001010011000011 M
#46
1$
b100011 %
b110011001010011000101 M
#47
0$
b110011001010011000110 M
#48
1$
b10111 %
b110011001010011001000 M
#49
0$
b10101 %
b110011001010011001001 M
#50
1$
b100011 %
b110011001010011001011 M
#51
0$
b101000 %
b110011001010011001100 M
#52
1$
b10100 %
b110011001010011001110 M
#53
0$
b110011001010011001111 M
#54
1$
b100010 %
b110011001010011010001 M
#55
0$
b100011 %
b110011001010011010010 M
#56
1$
b10100 %
b110011001010011010100 M
#57
0$
b10110 %
b110011001010011010101 M
#58
1$
b100001 %
b110011001010011010111 M
#59
0$
b100011 %
b110011001010011011000 M
#60
b11011 %
b110011001010011011001 M
#61
1$
b10100 %
b110011001010011011011 M
#62
0$
b100001 %
b110011001010011011100 M
#63
1$
b100111 %
b110011001010011011110 M
#64
0$
b11011 %
b110011001010011011111 M
#65
1$
b0 %
b110011001010011100001 M
#66
0$
b100010 %
b110011001010011100010 M
#67
1$
b111001 %
b110011001010011100100 M
#68
0$
b10100 %
b110011001010011100101 M
#69
1$
b1 %
b110011001010011100111 M
#70
0$
b100010 %
b110011001010011101000 M
#71
1$
b11000 %
b110011001010011101010 M
#72
0$
b11001 %
b110011001010011101011 M
#73
1$
b100000 %
b110011001010011101101 M
#74
0$
b110011001010011101110 M
#75
1$
b11001 %
b110011001010011110000 M
#76
0$
b11010 %
b110011001010011110001 M
#77
1$
b1111 %
b110011001010011110011 M
#78
0$
b100010 %
b110011001010011110100 M
#79
1$
b10100 %
b110011001010011110110 M
#80
0$
b11000 %
b110011001010011110111 M
#81
1$
b100010 %
b110011001010011111001 M
#82
0$
b1111 %
b110011001010011111010 M
#83
1$
b11010 %
b110011001010011111100 M
#84
0$
b11000 %
b110011001010011111101 M
#85
1$
b1101 %
b110011001010011111111 M
#86
0$
b1111 %
b110011001010100000000 M
#87
1$
b11001 %
b110011001010100000010 M
#88
0$
b10011 %
b110011001010100000011 M
#89
1$
b100000 %
b110011001010100000101 M
#90
0$
b1101 %
b110011001010100000110 M
#91
1$
b10001 %
b110011001010100001000 M
#92
0$
b10010 %
b110011001010100001001 M
#93
b1111 %
b110011001010100001010 M
#94
1$
b1000 %
b110011001010100001100 M
#95
b10011 %
b110011001010100001110 M
#96
b10010 %
b110011001010100001111 M
#97
0$
b1110 %
b110011001010100010000 M
#98
1$
b1001 %
b110011001010100010010 M
#99
0$
b10000 %
b110011001010100010011 M
#100
1$
b11101 %
b110011001010100010101 M
#101
0$
b1111 %
b110011001010100010110 M
#102
1$
b10000 %
b110011001010100011000 M
#103
0$
b10010 %
b110011001010100011001 M
#104
1$
b1101 %
b110011001010100011011 M
#105
0$
b1110 %
b110011001010100011100 M
#106
1$
b10010 %
b110011001010100011110 M
#107
0$
b10000 %
b110011001010100011111 M
#108
1$
b1101 %
b110011001010100100001 M
#109
0$
b110011001010100100010 M
#110
1$
b10010 %
b110011001010100100100 M
#111
0$
b101101 %
b110011001010100100101 M
#112
1$
b1110 %
b110011001010100100111 M
#113
0$
b1100 %
b110011001010100101000 M
#114
1$
b101101 %
b110011001010100101010 M
#115
0$
b101110 %
b110011001010100101011 M
#116
1$
b1110 %
b110011001010100101101 M
#117
0$
b110011001010100101110 M
#118
1$
b101110 %
b110011001010100110000 M
#119
0$
b110011001010100110001 M
#120
1$
b1100 %
b110011001010100110011 M
#121
0$
b1110 %
b110011001010100110100 M
#122
1$
b101100 %
b110011001010100110110 M
#123
0$
b100100 %
b110011001010100110111 M
#124
1$
b1100 %
b110011001010100111001 M
#125
0$
b1101 %
b110011001010100111010 M
#126
1$
b100111 %
b110011001010100111011 M
#127
0$
b101100 %
b110011001010100111101 M
#128
1$
b1100 %
b110011001010100111111 M
#129
0$
b110 %
b110011001010101000000 M
#130
b100101 %
b110011001010101000001 M
#131
1$
b110011001010101000011 M
#132
0$
b111 %
b110011001010101000100 M
#133
1$
b110011001010101000110 M
#134
0$
b100110 %
b110011001010101000111 M
#135
1$
b100111 %
b110011001010101001001 M
#136
0$
b101 %
b110011001010101001010 M
#137
1$
b110 %
b110011001010101001100 M
#138
0$
b100110 %
b110011001010101001101 M
#139
1$
b101 %
b110011001010101001111 M
#140
0$
b110011001010101010000 M
#141
1$
b100100 %
b110011001010101010010 M
#142
0$
b110011001010101010011 M
#143
1$
b101 %
b110011001010101010101 M
#144
0$
b110 %
b110011001010101010110 M
#145
1$
b101011 %
b110011001010101011000 M
#146
0$
b101001 %
b110011001010101011001 M
#147
1$
b101 %
b110011001010101011011 M
#148
0$
b110 %
b110011001010101011100 M
#149
1$
b101001 %
b110011001010101011110 M
#150
0$
b110011001010101011111 M
#151
1$
b110 %
b110011001010101100001 M
#152
0$
b110011001010101100010 M
#153
1$
b101011 %
b110011001010101100100 M
#154
0$
b101010 %
b110011001010101100101 M
#155
1$
b110 %
b110011001010101100111 M
#156
0$
b100 %
b110011001010101101000 M
#157
1$
b101000 %
b110011001010101101010 M
#158
0$
b110011001010101101011 M
#159
1$
b100 %
b110011001010101101101 M
#160
0$
b110 %
b110011001010101101110 M
#161
1$
b100001 %
b110011001010101110000 M
#162
0$
b101000 %
b110011001010101110001 M
#163
1$
b110 %
b110011001010101110011 M
#164
b100 %
b110011001010101110100 M
#165
0$
b100011 %
b110011001010101110101 M
#166
1$
b100000 %
b110011001010101110111 M
#167
0$
b1011 %
b110011001010101111000 M
#168
1$
b110011001010101111010 M
#169
0$
b100001 %
b110011001010101111011 M
#170
1$
b100011 %
b110011001010101111101 M
#171
0$
b1011 %
b110011001010101111110 M
#172
1$
b100001 %
b110011001010110000000 M
#173
0$
b110011001010110000001 M
#174
1$
b1011 %
b110011001010110000011 M
#175
0$
b110011001010110000100 M
#176
1$
b100010 %
b110011001010110000110 M
#177
0$
b100000 %
b110011001010110000111 M
#178
1$
b1011 %
b110011001010110001001 M
#179
0$
b110011001010110001010 M
#180
1$
b100000 %
b110011001010110001100 M
#181
0$
b100010 %
b110011001010110001101 M
#182
1$
b1011 %
b110011001010110001111 M
#183
0$
b110011001010110010000 M
#184
1$
b100010 %
b110011001010110010010 M
#185
0$
b100000 %
b110011001010110010011 M
#186
1$
b1011 %
b110011001010110010101 M
#187
0$
b1000 %
b110011001010110010110 M
#188
1$
b100000 %
b110011001010110011000 M
#189
0$
b1111 %
b110011001010110011001 M
#190
1$
b1001 %
b110011001010110011011 M
#191
0$
b110011001010110011100 M
#192
1$
b1111 %
b110011001010110011110 M
#193
0$
b1101 %
b110011001010110011111 M
#194
1$
b1001 %
b110011001010110100001 M
#195
0$
b1010 %
b110011001010110100010 M
#196
b1101 %
b110011001010110100011 M
#197
1$
b1100 %
b110011001010110100101 M
#198
0$
b1010 %
b110011001010110100110 M
#199
1$
b110011001010110101000 M
#200
0$
b1110 %
b110011001010110101001 M
#201
1$
b110011001010110101011 M
#202
0$
b1010 %
b110011001010110101100 M
#203
1$
b1000 %
b110011001010110101110 M
#204
0$
b111 %
b110011001010110101111 M
#205
1$
b1010 %
b110011001010110110001 M
#206
0$
b110011001010110110010 M
#207
1$
b1100 %
b110011001010110110100 M
#208
0$
b111 %
b110011001010110110101 M
#209
1$
b1010 %
b110011001010110110111 M
#210
0$
b110011001010110111000 M
#211
1$
b111 %
b110011001010110111010 M
#212
0$
b101 %
b110011001010110111011 M
#213
1$
b1010 %
b110011001010110111101 M
#214
0$
b1000 %
b110011001010110111110 M
#215
1$
b101 %
b110011001010111000000 M
#216
0$
b110011001010111000001 M
#217
1$
b1000 %
b110011001010111000011 M
#218
0$
b110011001010111000100 M
#219
1$
b110 %
b110011001010111000110 M
#220
0$
b111 %
b110011001010111000111 M
#221
1$
b11 %
b110011001010111001001 M
#222
0$
b110011001010111001010 M
#223
1$
b110 %
b110011001010111001100 M
#224
0$
b100 %
b110011001010111001101 M
#225
1$
b1000 %
b110011001010111001111 M
#226
0$
b11 %
b110011001010111010000 M
#227
1$
b110 %
b110011001010111010010 M
#228
0$
b100 %
b110011001010111010011 M
#229
1$
b11 %
b110011001010111010100 M
#230
b0 %
b110011001010111010110 M
#231
0$
b1011 %
b110011001010111010111 M
#232
1$
b110011001010111011001 M
#233
0$
b11 %
b110011001010111011010 M
#234
1$
b110011001010111011100 M
#235
0$
b1011 %
b110011001010111011101 M
#236
1$
b110011001010111011111 M
#237
0$
b1 %
b110011001010111100000 M
#238
1$
b1001 %
b110011001010111100010 M
#239
0$
b110011001010111100011 M
#240
1$
b1 %
b110011001010111100101 M
#241
0$
b110011001010111100110 M
#242
1$
b1001 %
b110011001010111101000 M
#243
0$
b1010 %
b110011001010111101001 M
#244
1$
b11 %
b110011001010111101011 M
#245
0$
b1 %
b110011001010111101100 M
#246
1$
b1010 %
b110011001010111101110 M
#247
0$
b1000 %
b110011001010111101111 M
#248
1$
b1 %
b110011001010111110001 M
#249
0$
b110011001010111110010 M
#250
1$
b1000 %
b110011001010111110100 M
#251
0$
b110011001010111110101 M
#252
1$
b1 %
b110011001010111110111 M
#253
0$
b10 %
b110011001010111111000 M
#254
1$
b1000 %
b110011001010111111010 M
#255
0$
b110011001010111111011 M
#256
1$
b1 %
b110011001010111111101 M
#257
0$
b10 %
b110011001010111111110 M
#258
1$
b11 %
b110011001011000000000 M
#259
0$
b110011001011000000001 M
#260
1$
b10 %
b110011001011000000011 M
#261
0$
b110011001011000000100 M
#262
1$
b11 %
b110011001011000000110 M
#263
0$
b110011001011000000111 M
#264
1$
b10 %
b110011001011000001000 M
#265
b110011001011000001010 M
#266
0$
b1 %
b110011001011000001011 M
#267
1$
b10 %
b110011001011000001101 M
#268
0$
b110011001011000001110 M
#269
1$
b1 %
b110011001011000010000 M
#270
0$
b11 %
b110011001011000010001 M
#271
1$
b10 %
b110011001011000010011 M
#272
0$
b110011001011000010100 M
#273
1$
b1 %
b110011001011000010110 M
#274
0$
b10 %
b110011001011000010111 M
#275
1$
b110011001011000011001 M
#276
0$
b0 %
b110011001011000011010 M
#277
1$
b1 %
b110011001011000011100 M
#278
0$
b110011001011000011101 M
#279
1$
b0 %
b110011001011000011111 M
#280
0$
b110011001011000100000 M
#281
1$
b10 %
b110011001011000100010 M
#282
0$
b110011001011000100011 M
#283
1$
b0 %
b110011001011000100101 M
#284
0$
b10 %
b110011001011000100110 M
#285
1$
b110011001011000101000 M
#286
0$
b110011001011000101001 M
#287
1$
b0 %
b110011001011000101011 M
#288
0$
b110011001011000101100 M
#289
1$
b10 %
b110011001011000101110 M
#290
0$
b110011001011000101111 M
#291
1$
b0 %
b110011001011000110001 M
#292
0$
b110011001011000110010 M
#293
1$
b110011001011000110100 M
#294
0$
b110011001011000110101 M
#295
1$
b110011001011000110111 M
#296
0$
b10 %
b110011001011000111000 M
#297
1$
b0 %
b110011001011000111001 M
#298
0$
b110011001011000111011 M
#299
b110011001011000111100 M
#300
1$
b10 %
b110011001011000111110 M
#301
0$
b0 %
b110011001011000111111 M
#302
1$
b110011001011001000001 M
#303
0$
b110011001011001000010 M
#304
1$
b110011001011001000100 M
#305
0$
b110011001011001000101 M
#306
1$
b110011001011001000111 M
#307
0$
b110011001011001001000 M
#308
1$
b110011001011001001010 M
#309
0$
b110011001011001001011 M
#310
1$
b110011001011001001101 M
#311
0$
b110011001011001001110 M
#312
1$
b110011001011001010000 M
#313
0$
b110011001011001010001 M
#314
1$
b110011001011001010011 M
#315
0$
b110011001011001010100 M
#316
1$
b110011001011001010110 M
#317
0$
b110011001011001010111 M
#318
1$
b110011001011001011001 M
#319
0$
b110011001011001011010 M
#320
1$
b110011001011001011100 M
#321
0$
b110011001011001011101 M
#322
1$
b110011001011001011111 M
#323
0$
b110011001011001100000 M
#324
1$
b110011001011001100010 M
#325
0$
b110011001011001100011 M
#326
1$
b110011001011001100101 M
#327
0$
b110011001011001100110 M
#328
1$
b110011001011001101000 M
#329
0$
b110011001011001101001 M
#330
1$
b110011001011001101011 M
#331
0$
b110011001011001101100 M
#332
b110011001011001101101 M
#333
1$
b110011001011001101111 M
#334
0$
b110011001011001110000 M
#335
1$
b110011001011001110010 M
#336
0$
b110011001011001110011 M
#337
1$
b110011001011001110101 M
#338
0$
b110011001011001110110 M
#339
1$
b110011001011001111000 M
#340
0$
b110011001011001111001 M
#341
1$
b110011001011001111011 M
#342
0$
b110011001011001111100 M
#343
1$
b110011001011001111110 M
#344
0$
b110011001011001111111 M
#345
1$
b110011001011010000001 M
#346
0$
b110011001011010000010 M
#347
1$
b110011001011010000100 M
#348
0$
b110011001011010000101 M
#349
1$
b110011001011010000111 M
#350
0$
b110011001011010001000 M
#351
1$
b110011001011010001010 M
#352
0$
b110011001011010001011 M
#353
1$
b110011001011010001101 M
#354
0$
b110011001011010001110 M
#355
1$
b110011001011010010000 M
#356
0$
b110011001011010010001 M
#357
1$
b110011001011010010011 M
#358
0$
b110011001011010010100 M
#359
1$
b110011001011010010110 M
#360
0$
b110011001011010010111 M
#361
1$
b110011001011010011001 M
#362
0$
b110011001011010011010 M
#363
1$
b110011001011010011100 M
#364
0$
b110011001011010011101 M
#365
1$
b110011001011010011110 M
#366
b110011001011010100000 M
#367
0$
b110011001011010100001 M
#368
1$
b110011001011010100011 M
#369
0$
b110011001011010100100 M
#370
1$
b110011001011010100110 M
#371
0$
b110011001011010100111 M
#372
1$
b110011001011010101001 M
#373
0$
b110011001011010101010 M
#374
1$
b110011001011010101100 M
#375
0$
b110011001011010101101 M
#376
1$
b110011001011010101111 M
#377
0$
b110011001011010110000 M
#378
1$
b110011001011010110010 M
#379
0$
b110011001011010110011 M
#380
1$
b110011001011010110101 M
#381
0$
b110011001011010110110 M
#382
1$
b110011001011010111000 M
#383
0$
b110011001011010111001 M
#384
1$
b110011001011010111011 M
#385
0$
b110011001011010111100 M
#386
1$
b110011001011010111110 M
#387
0$
b110011001011010111111 M
#388
1$
b110011001011011000001 M
#389
0$
b110011001011011000010 M
#390
1$
b110011001011011000100 M
#391
0$
b110011001011011000101 M
#392
1$
b110011001011011000111 M
#393
0$
b110011001011011001000 M
#394
1$
b110011001011011001010 M
#395
0$
b110011001011011001011 M
#396
1$
b110011001011011001101 M
#397
0$
b110011001011011001110 M
#398
1$
b110011001011011011100 M
#399
0$
b110011001011011010001 M
#400
b110011001011011010010 M
#401
1$
b110011001011011010100 M
#402
0$
b110011001011011010101 M
#403
1$
b110011001011011010111 M
#404
0$
b110011001011011011000 M
#405
1$
b110011001011011011010 M
#406
0$
b110011001011011011011 M
#407
1$
b110011001011011011101 M
#408
0$
b110011001011011011110 M
#409
1$
b110011001011011100000 M
#410
0$
b110011001011011100001 M
#411
1$
b110011001011011100011 M
#412
0$
b110011001011011100100 M
#413
1$
b110011001011011100110 M
#414
0$
b110011001011011100111 M
#415
1$
b110011001011011101001 M
#416
0$
b110011001011011101010 M
#417
1$
b110011001011011101100 M
#418
0$
b110011001011011101101 M
#419
1$
b110011001011011101111 M
#420
0$
b110011001011011110000 M
#421
1$
b110011001011011110010 M
#422
0$
b110011001011011110011 M
#423
1$
b110011001011011110101 M
#424
0$
b110011001011011110110 M
#425
1$
b110011001011011111000 M
#426
0$
b110011001011011111001 M
#427
1$
b110011001011011111011 M
#428
0$
b110011001011011111100 M
#429
1$
b110011001011011111110 M
#430
0$
b110011001011011111111 M
#431
1$
b110011001011100000001 M
#432
0$
b110011001011100000010 M
#433
b110011001011100000011 M
#434
1$
b110011001011100000101 M
#435
0$
b110011001011100000110 M
#436
1$
b110011001011100001000 M
#437
0$
b110011001011100001001 M
#438
1$
b110011001011100001011 M
#439
0$
b110011001011100001100 M
#440
1$
b110011001011100001110 M
#441
0$
b110011001011100001111 M
#442
1$
b110011001011100010001 M
#443
0$
b110011001011100010010 M
#444
1$
b110011001011100010100 M
#445
0$
b110011001011100010101 M
#446
1$
b110011001011100010111 M
#447
0$
b110011001011100011000 M
#448
1$
b110011001011100011010 M
#449
0$
b110011001011100011011 M
#450
1$
b110011001011100011101 M
#451
0$
b110011001011100011110 M
#452
1$
b110011001011100100000 M
#453
0$
b110011001011100100001 M
#454
1$
b110011001011100100011 M
#455
0$
b110011001011100100100 M
#456
1$
b110011001011100100110 M
#457
0$
b110011001011100100111 M
#458
1$
b110011001011100101001 M
#459
0$
b110011001011100101010 M
#460
1$
b110011001011100101100 M
#461
0$
b110011001011100101101 M
#462
1$
b110011001011100101111 M
#463
0$
b110011001011100110000 M
#464
1$
b110011001011100110010 M
#465
0$
b110011001011100110011 M
#466
1$
b110011001011100110100 M
#467
b110011001011100110110 M
#468
0$
b110011001011100110111 M
#469
1$
b110011001011100111001 M
#470
0$
b110011001011100111010 M
#471
1$
b110011001011100111100 M
#472
0$
b110011001011100111101 M
#473
1$
b110011001011100111111 M
#474
0$
b110011001011101000000 M
#475
1$
b110011001011101000010 M
#476
0$
b110011001011101000011 M
#477
1$
b110011001011101000101 M
#478
0$
b110011001011101000110 M
#479
1$
b110011001011101001000 M
#480
0$
b110011001011101001001 M
#481
1$
b110011001011101001011 M
#482
0$
b110011001011101001100 M
#483
1$
b110011001011101001110 M
#484
0$
b110011001011101001111 M
#485
1$
b110011001011101010001 M
#486
0$
b110011001011101010010 M
#487
1$
b110011001011101010100 M
#488
0$
b110011001011101010101 M
#489
1$
b110011001011101010111 M
#490
0$
b110011001011101011000 M
#491
1$
b110011001011101011010 M
#492
0$
b110011001011101011011 M
#493
1$
b110011001011101011101 M
#494
0#
0$
b110011001011101011110 M
#495
1#
1$
b11111111 %
b100011110000 -
b110011001011101100000 M
#496
0#
0$
b0 %
b110011001011101100001 M
#497
1$
b1000000 %
b110011001011101100011 M
#498
0$
b110011001011101100100 M
#499
1$
b100000 %
b110011001011101100110 M
#500
0$
b110011001011101100111 M
#501
b1000000 %
b110011001011101101000 M
#502
1$
b110011001011101101010 M
#503
0$
b100000 %
b110011001011101101011 M
#504
1$
b110011001011101101101 M
#505
0$
b1000000 %
b110011001011101101110 M
#506
1$
b110011001011101110000 M
#507
0$
b100000 %
b110011001011101110001 M
#508
1$
b110011001011101110011 M
#509
0$
b1000000 %
b110011001011101110100 M
#510
1$
b110011001011101110110 M
#511
0$
b100000 %
b110011001011101110111 M
#512
1$
b110011001011101111001 M
#513
0$
b1000000 %
b110011001011101111010 M
#514
1$
b100000 %
b110011001011101111100 M
#515
0$
b110011001011101111101 M
#516
1$
b1000000 %
b110011001011101111111 M
#517
0$
b110011001011110000000 M
#518
1$
b100000 %
b110011001011110000010 M
#519
0$
b110011001011110000011 M
#520
1$
b1000000 %
b110011001011110000101 M
#521
0$
b110011001011110000110 M
#522
1$
b100000 %
b110011001011110001000 M
#523
0$
b110011001011110001001 M
#524
1$
b1000000 %
b110011001011110001011 M
#525
0$
b110011001011110001100 M
#526
1$
b100000 %
b110011001011110001110 M
#527
0$
b110011001011110001111 M
#528
1$
b1000000 %
b110011001011110010001 M
#529
0$
b110011001011110010010 M
#530
1$
b100000 %
b110011001011110010100 M
#531
0$
b110011001011110010101 M
#532
1$
b1000000 %
b110011001011110010111 M
#533
0$
b110011001011110011000 M
#534
1$
b100000 %
b110011001011110011010 M
#535
0$
b110011001011110011011 M
#536
b1000000 %
b110011001011110011100 M
#537
1$
b110011001011110011110 M
#538
0$
b100000 %
b110011001011110011111 M
#539
1$
b110011001011110100001 M
#540
0$
b1000000 %
b110011001011110100010 M
#541
1$
b110011001011110100100 M
#542
0$
b100000 %
b110011001011110100101 M
#543
1$
b110011001011110100111 M
#544
0$
b1000000 %
b110011001011110101000 M
#545
1$
b110011001011110101010 M
#546
0$
b100000 %
b110011001011110101011 M
#547
1$
b0 %
b110011001011110101101 M
#548
0$
b1000000 %
b110011001011110101110 M
#549
1$
b100000 %
b110011001011110110000 M
#550
0$
b110011001011110110001 M
#551
1$
b1000000 %
b110011001011110110011 M
#552
0$
b110011001011110110100 M
#553
1$
b100000 %
b110011001011110110110 M
#554
0$
b110011001011110110111 M
#555
1$
b1000000 %
b110011001011110111001 M
#556
0$
b110011001011110111010 M
#557
1$
b100000 %
b110011001011110111100 M
#558
0$
b110011001011110111101 M
#559
1$
b1000000 %
b110011001011110111111 M
#560
0$
b110011001011111000000 M
#561
1$
b100000 %
b110011001011111000010 M
#562
0$
b110011001011111000011 M
#563
1$
b1000000 %
b110011001011111000101 M
#564
0$
b110011001011111000110 M
#565
1$
b100000 %
b110011001011111001000 M
#566
0$
b110011001011111001001 M
#567
1$
b1000000 %
b110011001011111001011 M
#568
0$
b110011001011111001100 M
#569
b100000 %
b110011001011111001101 M
#570
1$
b110011001011111001111 M
#571
0$
b1000000 %
b110011001011111010000 M
#572
1$
b110011001011111010010 M
#573
0$
b100000 %
b110011001011111010011 M
#574
1$
b110011001011111010101 M
#575
0$
b1000000 %
b110011001011111010110 M
#576
1$
b110011001011111011000 M
#577
0$
b100000 %
b110011001011111011001 M
#578
1$
b110011001011111011011 M
#579
0$
b1000000 %
b110011001011111011100 M
#580
1$
b110011001011111011110 M
#581
0$
b100000 %
b110011001011111011111 M
#582
1$
b1000000 %
b110011001011111100001 M
#583
0$
b110011001011111100010 M
#584
1$
b100000 %
b110011001011111100100 M
#585
0$
b110011001011111100101 M
#586
1$
b1000000 %
b110011001011111100111 M
#587
0$
b110011001011111101000 M
#588
1$
b100000 %
b110011001011111101010 M
#589
0$
b110011001011111101011 M
#590
1$
b1000000 %
b110011001011111101101 M
#591
0$
b110011001011111101110 M
#592
1$
b100000 %
b110011001011111110000 M
#593
0$
b110011001011111110001 M
#594
1$
b1000000 %
b110011001011111110011 M
#595
0$
b110011001011111110100 M
#596
1$
b100000 %
b110011001011111110110 M
#597
0$
b110011001011111110111 M
#598
1$
b1000000 %
b110011001011111111001 M
#599
0$
b110011001011111111010 M
#600
1$
b100000 %
b110011001011111111100 M
#601
0$
b110011001011111111101 M
#602
1$
b1000000 %
b110011001011111111110 M
#603
b110011001100000000000 M
#604
0$
b100000 %
b110011001100000000001 M
#605
1$
b110011001100000000011 M
#606
0$
b1000000 %
b110011001100000000100 M
#607
1$
b110011001100000000110 M
#608
0$
b100000 %
b110011001100000000111 M
#609
1$
b110011001100000001001 M
#610
0$
b1000000 %
b110011001100000001010 M
#611
1$
b110011001100000001100 M
#612
0$
b100000 %
b110011001100000001101 M
#613
1$
b110011001100000001111 M
#614
0$
b1000000 %
b110011001100000010000 M
#615
1$
b100000 %
b110011001100000010010 M
#616
0$
b110011001100000010011 M
#617
1$
b1000000 %
b110011001100000010101 M
#618
0$
b110011001100000010110 M
#619
1$
b100000 %
b110011001100000011000 M
#620
0$
b110011001100000011001 M
#621
1$
b1000000 %
b110011001100000011011 M
#622
0$
b110011001100000011100 M
#623
1$
b100000 %
b110011001100000011110 M
#624
0$
b110011001100000011111 M
#625
1$
b1000000 %
b110011001100000100001 M
#626
0$
b110011001100000100010 M
#627
1$
b100000 %
b110011001100000100100 M
#628
0$
b110011001100000100101 M
#629
1$
b1000000 %
b110011001100000100111 M
#630
0$
b110011001100000101000 M
#631
1$
b100000 %
b110011001100000101010 M
#632
0$
b110011001100000101011 M
#633
1$
b1000000 %
b110011001100000101101 M
#634
0$
b110011001100000101110 M
#635
1$
b100000 %
b110011001100000101111 M
#636
b110011001100000110001 M
#637
0$
b1000000 %
b110011001100000110010 M
#638
1$
b110011001100000110100 M
#639
0$
b100000 %
b110011001100000110101 M
#640
1$
b110011001100000110111 M
#641
0$
b1000000 %
b110011001100000111000 M
#642
1$
b110011001100000111010 M
#643
0$
b100000 %
b110011001100000111011 M
#644
1$
b110011001100000111101 M
#645
0$
b1000000 %
b110011001100000111110 M
#646
1$
b110011001100001000000 M
#647
0$
b100000 %
b110011001100001000001 M
#648
1$
b0 %
b110011001100001000011 M
#649
0$
b1000000 %
b110011001100001000100 M
#650
1$
b100000 %
b110011001100001000110 M
#651
0$
b110011001100001000111 M
#652
1$
b1000000 %
b110011001100001001001 M
#653
0$
b110011001100001001010 M
#654
1$
b100000 %
b110011001100001001100 M
#655
0$
b110011001100001001101 M
#656
1$
b1000000 %
b110011001100001001111 M
#657
0$
b110011001100001010000 M
#658
1$
b100000 %
b110011001100001010010 M
#659
0$
b110011001100001010011 M
#660
1$
b1000000 %
b110011001100001010101 M
#661
0$
b110011001100001010110 M
#662
1$
b100000 %
b110011001100001011000 M
#663
0$
b110011001100001011001 M
#664
1$
b1000000 %
b110011001100001011011 M
#665
0$
b110011001100001011100 M
#666
1$
b100000 %
b110011001100001011110 M
#667
0$
b110011001100001011111 M
#668
1$
b1000000 %
b110011001100001100000 M
#669
b110011001100001100010 M
#670
0$
b100000 %
b110011001100001100011 M
#671
1$
b110011001100001100101 M
#672
0$
b1000000 %
b110011001100001100110 M
#673
1$
b110011001100001101000 M
#674
0$
b100000 %
b110011001100001101001 M
#675
1$
b110011001100001101011 M
#676
0$
b1000000 %
b110011001100001101100 M
#677
1$
b110011001100001101110 M
#678
0$
b100000 %
b110011001100001101111 M
#679
1$
b110011001100001110001 M
#680
0$
b11001100 %
b110011001100001110010 M
#681
1$
b0 %
b100011110001 -
b110011001100001110100 M
#682
0$
b1000000 %
b110011001100001110101 M
#683
1#
1$
b0 %
b100011110010 -
b110011001100001110111 M
#684
0$
b110011001100001111000 M
#685
1$
b110011001100001111010 M
#686
0$
b110011001100001111011 M
#687
1$
b110011001100001111101 M
#688
0$
b110011001100001111110 M
#689
1$
b110011001100010000000 M
#690
0$
b110011001100010000001 M
#691
1$
b110011001100010000011 M
#692
0$
b110011001100010000100 M
#693
1$
b110011001100010000110 M
#694
0$
b110011001100010000111 M
#695
1$
b110011001100010001001 M
#696
0$
b110011001100010001010 M
#697
1$
b110011001100010001100 M
#698
0$
b110011001100010001101 M
#699
1$
b110011001100010001111 M
#700
0$
b110011001100010010000 M
#701
b110011001100010010001 M
#702
1$
b110011001100010010011 M
#703
0$
b110011001100010010100 M
#704
1$
b110011001100010010110 M
#705
0$
b110011001100010010111 M
#706
1$
b110011001100010011001 M
#707
0$
b110011001100010011010 M
#708
1$
b110011001100010011100 M
#709
0$
b110011001100010011101 M
#710
1$
b110011001100010011111 M
#711
0$
b110011001100010100000 M
#712
1$
b110011001100010100010 M
#713
0$
b110011001100010100011 M
#714
1$
b110011001100010100101 M
#715
0$
b110011001100010100110 M
#716
1$
b110011001100010101000 M
#717
0$
b110011001100010101001 M
#718
1$
b110011001100010101011 M
#719
0$
b110011001100010101100 M
#720
1$
b110011001100010101110 M
#721
0$
b110011001100010101111 M
#722
1$
b110011001100010110001 M
#723
0$
b110011001100010110010 M
#724
1$
b110011001100010110100 M
#725
0$
b110011001100010110101 M
#726
1$
b110011001100010110111 M
#727
0$
b110011001100010111000 M
#728
1$
b110011001100010111010 M
#729
0$
b110011001100010111011 M
#730
1$
b110011001100010111101 M
#731
0$
b110011001100010111110 M
#732
1$
b110011001100011000000 M
#733
0$
b110011001100011000001 M
#734
b110011001100011000010 M
#735
1$
b110011001100011000100 M
#736
0$
b110011001100011000101 M
#737
1$
b110011001100011000111 M
#738
0$
b110011001100011001000 M
