QRNG/XilinxProject/I2C/.Xil/Vivado-7408-DESKTOP-FSTTAJ6/hw_ila_data_1/zip_work/waveform.vcd
$date
        2021-Nov-24 13:45:44
$end
$version
        Vivado v2019.1 (64-bit)
$end
$timescale
        1ps
$end
$scope module dut $end
$var reg 1 " design_1_i/CIS_test_0_o_vsync $end
$var reg 1 # design_1_i/CIS_test_0_o_hsync $end
$var reg 1 $ design_1_i/cis_pclk_1 $end
$var reg 8 % design_1_i/cis_d_1 [7:0] $end
$var reg 32 - design_1_i/CIS_test_0_o_hsync_cnt [31:0] $end
$var reg 32 M design_1_i/CIS_test_0_o_pclk_cnt [31:0] $end
$var reg 20 m design_1_i/CIS_test_0_o_ram_add [19:0] $end
$var reg 1 #" _TRIGGER $end
$var reg 1 $" _WINDOW $end
$var reg 1 %" _GAP $end
$upscope $end
$enddefinitions $end
#0
$dumpvars
1"
1#
0$
b0 %
b110 -
b10110000011101 M
b1011000001110100 m
0#"
1$"
0%"
$end
#1
1$
b10110000011110 M
b1011000001111000 m
#3
0$
b10 %
#5
1$
b10110000011111 M
b1011000001111100 m
#7
0$
#8
b0 %
#9
1$
b10110000100000 M
b1011000010000000 m
#11
0$
b10 %
#13
1$
b10110000100001 M
b1011000010000100 m
#15
0$
#17
1$
b10110000100010 M
b1011000010001000 m
#19
0$
#20
b0 %
#21
1$
b10110000100011 M
b1011000010001100 m
#23
0$
b10 %
#25
1$
b10110000100100 M
b1011000010010000 m
#27
0$
b11 %
#28
b1 %
#29
1$
b10110000100101 M
b1011000010010100 m
#31
0$
#32
b0 %
#33
1$
b10110000100110 M
b1011000010011100 m
#34
b1011000010011000 m
#35
0$
#36
b10 %
#37
1$
b10110000100111 M
#38
b1011000010011100 m
#39
0$
#40
b0 %
#41
1$
b10110000101000 M
b1011000010001100 m
#42
b1011000010100000 m
#43
0$
#44
b10 %
#45
1$
b10110000101001 M
#46
b1011000010100100 m
#47
0$
#49
1$
b10110000101010 M
#50
b1011000010101000 m
#51
0$
#53
1$
#54
b10110000101011 M
b1011000010101100 m
#56
0$
b0 %
#58
1$
b10110000101100 M
b1011000010110000 m
#60
0$
b10 %
#62
1$
b10110000101101 M
b1011000010110100 m
#64
0$
b11 %
#66
1$
b10110000101110 M
b1011000010111000 m
#68
0$
#70
1$
b10110000101111 M
b1011000010111100 m
#72
0$
b0 %
#74
1$
b10110000110000 M
b1011000011000000 m
#76
0$
b11 %
#78
1$
b10110000110001 M
b1011000011000100 m
#80
0$
b10 %
#82
1$
b10110000110010 M
b1011000011001000 m
#84
0$
b11 %
#85
b1 %
#86
1$
b10110000110011 M
b1011000011001100 m
#88
0$
b0 %
#90
1$
b10110000110100 M
b1011000011010000 m
#92
0$
b10 %
#94
1$
b10110000110101 M
b1011000011010100 m
#96
0$
b11 %
#97
b1 %
#98
1$
b10110000110110 M
b1011000011011000 m
#100
0$
b10 %
#102
1$
b10110000110111 M
b1011000011011100 m
#104
0$
#106
1$
b10110000111000 M
b1011000011100000 m
#108
0$
#110
1$
b10110000111001 M
b1011000011100100 m
#112
0$
b11 %
#113
b1 %
#114
1$
b10110000111010 M
b1011000011101000 m
#116
0$
#117
b0 %
#118
1$
b10110000111011 M
b1011000011101100 m
#120
0$
b1 %
#122
1$
b10110000111100 M
b1011000011110000 m
#124
0$
#126
1$
b10110000111101 M
b1011000011110100 m
#128
0$
#129
b0 %
#130
1$
b10110000111110 M
b1011000011111000 m
#132
0$
b10 %
#134
1$
b10110000111111 M
b1011000011111100 m
#136
0$
#138
1$
b10110001000000 M
b1011000101100100 m
#139
b1011000100000000 m
#140
0$
#141
b0 %
#142
1$
b10110001000001 M
#143
b1011000100000100 m
#144
0$
#145
b10 %
#146
1$
b10110001000010 M
#147
b1011000100001000 m
#148
0$
#149
b1 %
#150
1$
b10110001000011 M
#151
b1011000100001100 m
#152
0$
#153
b11 %
#154
1$
#155
b10110001000100 M
b1011000100010000 m
#156
0$
#157
b10 %
#159
1$
b10110001000101 M
b1011000100010100 m
#161
0$
#163
1$
b10110001000110 M
b1011000100011000 m
#165
0$
#167
1$
b10110001000111 M
b1011000100011100 m
#169
0$
#171
1$
b10110001001000 M
b1011000100100000 m
#173
0$
b11 %
#174
b1 %
#175
1$
b10110001001001 M
b1011000100100100 m
#177
0$
b0 %
#179
1$
b10110001001010 M
b1011000100101000 m
#181
0$
b1000 %
#183
1$
b10110001001011 M
b1011000100101100 m
#185
0$
b10 %
#187
1$
b10110001001100 M
b1011000100110000 m
#189
0$
b0 %
#191
1$
b10110001001101 M
b1011000100110100 m
#193
0$
b1 %
#195
1$
b10110001001110 M
b1011000100111000 m
#197
0$
b10 %
#199
1$
b10110001001111 M
b1011000100111100 m
#201
0$
#203
1$
b10110001010000 M
b1011000101000000 m
#205
0$
b11 %
#207
1$
b10110001010001 M
b1011000101000100 m
#209
0$
b1010 %
#210
b1000 %
#211
1$
b10110001010010 M
b1011000101001000 m
#213
0$
b1 %
#215
1$
b10110001010011 M
b1011000101001100 m
#217
0$
b11 %
#218
b10 %
#219
1$
b10110001010100 M
b1011000101010000 m
#221
0$
b11 %
#222
b1 %
#223
1$
b10110001010101 M
b1011000101010100 m
#225
0$
b11 %
#226
b10 %
#227
1$
b10110001010110 M
b1011000101011000 m
#229
0$
#230
b0 %
#231
1$
b10110001010111 M
#232
b1011000101011100 m
#233
0$
b1 %
#235
1$
b10110001011000 M
b1011000101001100 m
#236
b1011000101100000 m
#237
0$
#238
b10 %
#239
1$
b10110001011001 M
#240
b1011000101100100 m
#241
0$
#243
1$
b10110001011010 M
#244
b1011000101101000 m
#245
0$
#246
b1 %
#247
1$
b10110001011011 M
#248
b1011000101101100 m
#249
0$
#251
1$
b10110001011100 M
#252
b1011000101110000 m
#253
0$
#255
1$
#256
b10110001011101 M
b1011000101110100 m
#258
0$
b0 %
#260
1$
b10110001011110 M
b1011000101111000 m
#262
0$
b10 %
#264
1$
b10110001011111 M
b1011000101111100 m
#266
0$
b0 %
#268
1$
b10110001100000 M
b1011000110000000 m
#270
0$
#272
1$
b10110001100001 M
b1011000110000100 m
#274
0$
#276
1$
b10110001100010 M
b1011000110001000 m
#278
0$
b1 %
#280
1$
b10110001100011 M
b1011000110001100 m
#282
0$
#284
1$
b10110001100100 M
b1011000110010000 m
#286
0$
b0 %
#288
1$
b10110001100101 M
b1011000110010100 m
#290
0$
#292
1$
b10110001100110 M
b1011000110011000 m
#294
0$
b1 %
#296
1$
b10110001100111 M
b1011000110011100 m
#298
0$
b0 %
#300
1$
b10110001101000 M
b1011000110100000 m
#302
0$
b1 %
#304
1$
b10110001101001 M
b1011000110100100 m
#306
0$
b10 %
#308
1$
b10110001101010 M
b1011000110101000 m
#310
0$
b11 %
#311
b1 %
#312
1$
b10110001101011 M
b1011000110101100 m
#314
0$
#316
1$
b10110001101100 M
b1011000110110000 m
#318
0$
b10 %
#320
1$
b10110001101101 M
b1011000110110100 m
#322
0$
#323
b0 %
#324
1$
b10110001101110 M
b1011000110111000 m
#326
0$
#328
1$
b10110001101111 M
b1011000110111100 m
#330
0$
b10 %
#332
1$
b10110001110000 M
b1011000111100000 m
#333
b1011000111000000 m
#334
0$
b11 %
#335
b1 %
#336
1$
b10110001110001 M
#337
b1011000111000100 m
#338
0$
#339
b0 %
#340
1$
b10110001110010 M
#341
b1011000111001000 m
#342
0$
#344
1$
b10110001110011 M
#345
b1011000111001100 m
#346
0$
#348
1$
b10110001110100 M
#349
b1011000111010000 m
#350
0$
#351
b10 %
#352
1$
b10110001110101 M
#353
b1011000111010100 m
#354
0$
#355
b1 %
#356
1$
b10110001110110 M
#357
b1011000111011000 m
#358
0$
#361
1$
b10110001110111 M
b1011000111011100 m
#363
0$
b0 %
#365
1$
b10110001111000 M
b1011000111100000 m
#367
0$
b10 %
#369
1$
b10110001111001 M
b1011000111100100 m
#371
0$
#373
1$
b10110001111010 M
b1011000111101000 m
#375
0$
b11 %
#376
b1 %
#377
1$
b10110001111011 M
b1011000111101100 m
#379
0$
b10 %
#381
1$
b10110001111100 M
b1011000111110000 m
#383
0$
b11 %
#384
b1 %
#385
1$
b10110001111101 M
b1011000111110100 m
#387
0$
b10 %
#389
1$
b10110001111110 M
b1011000111111000 m
#391
0$
b1010 %
#393
1$
b10110001111111 M
b1011000111111100 m
#395
0$
b10 %
#396
b0 %
#397
1$
b10110010000000 M
b1011001000000000 m
#399
0$
b10 %
#401
1$
b10110010000001 M
b1011001000000100 m
#403
0$
#404
b0 %
#405
1$
b10110010000010 M
b1011001000001000 m
#407
0$
#409
1$
b10110010000011 M
b1011001000001100 m
#411
0$
#413
1$
b10110010000100 M
b1011001000010000 m
#415
0$
#417
1$
b10110010000101 M
b1011001000010100 m
#419
0$
b1 %
#421
1$
b10110010000110 M
b1011001000011000 m
#423
0$
#424
b0 %
#425
1$
b10110010000111 M
b1011001000011100 m
#427
0$
b10 %
#429
1$
b10110010001000 M
b1011001000000000 m
#430
b1011001000100000 m
#431
0$
#433
1$
b10110010001001 M
b1011001000100100 m
#435
0$
b11 %
#437
1$
b10110010001010 M
b1011001000101100 m
#438
b1011001000101000 m
#439
0$
#440
b1 %
#441
1$
b10110010001011 M
#442
b1011001000101100 m
#443
0$
#445
1$
b10110010001100 M
b1011001000111100 m
#446
b1011001000110000 m
#447
0$
#448
b10 %
#449
1$
b10110010001101 M
#450
b1011001000110100 m
#451
0$
#452
b0 %
#453
1$
b10110010001100 M
#454
b10110010001110 M
b1011001000111000 m
#455
0$
#456
b10 %
#458
1$
b10110010001111 M
b1011001000111100 m
#460
0$
b0 %
#462
1$
b10110010010000 M
b1011001001000000 m
#464
0$
b10 %
#466
1$
b10110010010001 M
b1011001001000100 m
#468
0$
b1 %
#470
1$
b10110010010010 M
b1011001001001000 m
#472
0$
b10 %
#474
1$
b10110010010011 M
b1011001001001100 m
#476
0$
b1 %
#478
1$
b10110010010100 M
b1011001001010000 m
#480
0$
b10 %
#482
1$
b10110010010101 M
b1011001001010100 m
#484
0$
b0 %
#486
1$
b10110010010110 M
b1011001001011000 m
#488
0$
#490
1$
b10110010010111 M
b1011001001011100 m
#492
0$
#494
1$
b10110010011000 M
b1011001001100000 m
#496
0$
#498
1$
b10110010011001 M
b1011001001100100 m
#500
0$
b10 %
#502
1$
b10110010011010 M
b1011001001101000 m
#504
0$
#505
b0 %
#506
1$
b10110010011011 M
b1011001001101100 m
#508
0$
b11 %
#510
1$
b10110010011100 M
b1011001001110000 m
#512
0$
#513
b1 %
#514
1$
b10110010011101 M
b1011001001110100 m
#516
0$
b11 %
#517
b10 %
#518
1$
b10110010011110 M
b1011001001111000 m
#520
0$
#522
1$
b10110010011111 M
b1011001001111100 m
#524
0$
#525
b0 %
#526
1$
b10110010100000 M
b1011001010100000 m
#527
b1011001010000000 m
#528
0$
b10 %
#530
1$
b10110010100001 M
b1011001010000100 m
#532
0$
b11 %
#533
b1 %
#534
1$
b10110010100010 M
b1011001010001000 m
#536
0$
#538
1$
b10110010100011 M
b1011001010001100 m
#540
0$
#541
b0 %
#542
1$
b10110010100100 M
b1011001010011100 m
#543
b1011001010010000 m
#544
0$
#546
1$
b10110010100101 M
#547
b1011001010010100 m
#548
0$
#549
b10 %
#550
1$
b10110010100110 M
#551
b1011001010011000 m
#552
0$
#553
b0 %
#554
1$
b10110010100111 M
#555
b1011001010011100 m
#556
0$
#557
b10 %
#558
1$
b10110010101000 M
#559
b1011001010100000 m
#560
0$
#563
1$
b10110010101001 M
b1011001010100100 m
#565
0$
#567
1$
b10110010101010 M
b1011001010101000 m
#569
0$
b1 %
#571
1$
b10110010101011 M
b1011001010101100 m
#573
0$
b10 %
#575
1$
b10110010101100 M
b1011001010110000 m
#577
0$
b0 %
#579
1$
b10110010101101 M
b1011001010110100 m
#581
0$
b1 %
#583
1$
b10110010101110 M
b1011001010111000 m
#585
0$
#587
1$
b10110010101111 M
b1011001010111100 m
#589
0$
b0 %
#591
1$
b10110010110000 M
b1011001011000000 m
#593
0$
b1 %
#595
1$
b10110010110001 M
b1011001011000100 m
#597
0$
#599
1$
b10110010110010 M
b1011001011001000 m
#601
0$
#603
1$
b10110010110011 M
b1011001011001100 m
#605
0$
b0 %
#607
1$
b10110010110100 M
b1011001011010000 m
#609
0$
b10 %
#611
1$
b10110010110101 M
b1011001011010100 m
#613
0$
#614
b0 %
#615
1$
b10110010110110 M
b1011001011011000 m
#617
0$
b10 %
#619
1$
b10110010110111 M
b1011001011011100 m
#621
0$
#622
b0 %
#623
1$
b10110010111000 M
b1011001011100000 m
#625
0$
#627
1$
b10110010111001 M
b1011001011100100 m
#629
0$
#631
1$
b10110010111010 M
b1011001011101000 m
#633
0$
b10 %
#635
1$
b10110010111011 M
b1011001011101100 m
#637
0$
#639
1$
b10110010111100 M
b1011001011111100 m
#640
b1011001011110000 m
#641
0$
b1010 %
#642
b1000 %
#643
1$
b10110010111101 M
#644
b1011001011110100 m
#645
0$
#646
b0 %
#647
1$
b10110010111110 M
#648
b1011001011111000 m
#649
0$
#651
1$
b10110010111111 M
#652
b1011001011111100 m
#653
0$
b100000 %
#654
b110100 %
#655
1$
b10110011000000 M
#656
b1011001100000000 m
#657
0$
#658
b10 %
#659
1$
#660
b10110011000001 M
b1011001100000100 m
#662
0$
b1 %
#664
1$
b10110011000010 M
b1011001100001000 m
#666
0$
b10 %
#668
1$
b10110011000011 M
b1011001100001100 m
#670
0$
#672
1$
b10110011000100 M
b1011001100010000 m
#674
0$
b0 %
#676
1$
b10110011000101 M
b1011001100010100 m
#678
0$
b10 %
#680
1$
b10110011000110 M
b1011001100011000 m
#682
0$
b11 %
#683
b1 %
#684
1$
b10110011000111 M
b1011001100011100 m
#686
0$
b0 %
#688
1$
b10110011001000 M
b1011001100100000 m
#690
0$
#692
1$
b10110011001001 M
b1011001100100100 m
#694
0$
#696
1$
b10110011001010 M
b1011001100101000 m
#698
0$
b10 %
#700
1$
b10110011001011 M
b1011001100101100 m
#702
0$
b111 %
#704
1$
b10110011001100 M
b1011001100110000 m
#706
0$
b11 %
#708
1$
b10110011001101 M
b1011001100110100 m
#710
0$
b10 %
#712
1$
b10110011001110 M
b1011001100111000 m
#714
0$
#716
1$
b10110011001111 M
b1011001100111100 m
#718
0$
#719
b0 %
#720
1$
b10110011010000 M
b1011001101000000 m
#722
0$
b11 %
#724
1$
b10110011010001 M
b1011001101000100 m
#726
0$
#727
b1 %
#728
1$
b10110011010010 M
b1011001101001000 m
#730
0$
#732
1$
b10110011010011 M
b1011001101001100 m
#734
0$
b11 %
#735
b10 %
#736
1$
b10110011010100 M
b1011001101010000 m
#738
0$
#739
b0 %
#740
1$
b10110011010101 M
#741
b1011001101010100 m
#742
0$
#744
1$
b10110011010110 M
#745
b1011001101011000 m
#746
0$
#747
b1 %
#748
1$
b10110011010111 M
#749
b1011001101011100 m
#750
0$
#751
b0 %
#752
1$
b10110011011000 M
#753
b1011001101100000 m
#754
0$
#756
1$
b10110011011001 M
#757
b1011001101100100 m
#758
0$
#760
1$
b10110011011010 M
#761
b1011001101101000 m
#762
0$
#763
b10 %
#765
1$
b10110011011011 M
b1011001101101100 m
#767
0$
b0 %
#769
1$
b10110011011100 M
b1011001101110000 m
#771
0$
b10 %
#773
1$
b10110011011101 M
b1011001101110100 m
#775
0$
#777
1$
b10110011011110 M
b1011001101111000 m
#779
0$
b1 %
#781
1$
b10110011011111 M
b1011001101111100 m
#783
0$
b11 %
#785
1$
b10110011100000 M
b1011001110000000 m
#787
0$
b0 %
#789
1$
b10110011100001 M
b1011001110000100 m
#791
0$
b10 %
#793
1$
b10110011100010 M
b1011001110001000 m
#795
0$
b11 %
#796
b1 %
#797
1$
b10110011100011 M
b1011001110001100 m
#799
0$
b11 %
#801
1$
b10110011100100 M
b1011001110010000 m
#803
0$
#805
1$
b10110011100101 M
b1011001110010100 m
#807
0$
b10 %
#809
1$
b10110011100110 M
b1011001110011000 m
#811
0$
#813
1$
b10110011100111 M
b1011001110011100 m
#815
0$
#816
b0 %
#817
1$
b10110011101000 M
b1011001110100000 m
#819
0$
b1 %
#821
1$
b10110011101001 M
b1011001110100100 m
#823
0$
b0 %
#825
1$
b10110011101010 M
b1011001110101000 m
#827
0$
b10 %
#829
1$
b10110011101011 M
b1011001110101100 m
#831
0$
#832
b0 %
#833
1$
b10110011101100 M
b1011001110110000 m
#835
0$
b1 %
#837
1$
b10110011101101 M
b1011001110110100 m
#839
0$
b11 %
#840
b10 %
#841
1$
b10110011101110 M
b1011001110111100 m
#842
b1011001110111000 m
#843
0$
#845
1$
b10110011101111 M
#846
b1011001110111100 m
#847
0$
#849
1$
b10110011110000 M
b1011001110101100 m
#850
b1011001111000000 m
#851
0$
#853
1$
b10110011110001 M
#854
b1011001111000100 m
#855
0$
#857
1$
b10110011110000 M
#858
b10110011110010 M
b1011001111001000 m
#859
0$
#860
b1 %
#862
1$
b10110011110011 M
b1011001111001100 m
#864
0$
b0 %
#866
1$
b10110011110100 M
b1011001111010000 m
#868
0$
b10 %
#870
1$
b10110011110101 M
b1011001111010100 m
#872
0$
b1000 %
#874
1$
b10110011110110 M
b1011001111011000 m
#876
0$
b1 %
#878
1$
b10110011110111 M
b1011001111011100 m
#880
0$
b1000 %
#882
1$
b10110011111000 M
b1011001111100000 m
#884
0$
b1 %
#886
1$
b10110011111001 M
b1011001111100100 m
#888
0$
b10 %
#890
1$
b10110011111010 M
b1011001111101000 m
#892
0$
b11 %
#893
b1 %
#894
1$
b10110011111011 M
b1011001111101100 m
#896
0$
b11 %
#897
b10 %
#898
1$
b10110011111100 M
b1011001111110000 m
#900
0$
#901
b0 %
#902
1$
b10110011111101 M
b1011001111110100 m
#904
0$
b10 %
#906
1$
b10110011111110 M
b1011001111111000 m
#908
0$
#909
b0 %
#910
1$
b10110011111111 M
b1011001111111100 m
#912
0$
#914
1$
b10110100000000 M
b1011010000000000 m
#916
0$
b11110100 %
#917
0#
b11111111 %
#918
1$
#920
0$
b11111 %
#921
b0 %
#922
1$
#924
0$
#926
1$
#928
0$
b1101110 %
#930
1$
#932
0$
b1101010 %
#933
b1000000 %
#934
1$
#936
0$
b1100000 %
#937
b100000 %
#938
1$
#940
0$
b1100000 %
#941
b1000000 %
#942
1$
#944
0$
b1100000 %
#945
b100000 %
#946
1$
#948
0$
b1100000 %
#949
b1000000 %
#950
1$
#952
0$
b1100000 %
#953
b100000 %
#954
1$
#956
0$
b1100000 %
#957
b1000000 %
#958
1$
#960
0$
b1100000 %
#961
b100000 %
#962
1$
#964
0$
#965
b1000000 %
#967
1$
#969
0$
b100000 %
#971
1$
#973
0$
b1000000 %
#975
1$
#977
0$
b100000 %
#979
1$
#981
0$
b1000000 %
#983
1$
#985
0$
b100000 %
#987
1$
#989
0$
b1000000 %
#991
1$
#993
0$
b100000 %
#995
1$
#997
0$
b1000000 %
#999
1$
#1001
0$
b100000 %
#1003
1$
#1005
0$
b1000000 %
#1007
1$
#1009
0$
b100000 %
#1011
1$
#1013
0$
b1000000 %
#1015
1$
#1017
0$
b1100000 %
#1018
b100000 %
#1019
1$
#1021
0$
b1100000 %
#1022
b1000000 %
#1023
1$
#1025
0$
b1100000 %
#1026
b100000 %
#1027
1$
#1029
0$
b1100000 %
#1030
b1000000 %
#1031
1$
#1033
0$
b1100000 %
#1034
b100000 %
#1035
1$
#1037
0$
b1100000 %
#1038
b1000000 %
#1039
1$
#1041
0$
b1100000 %
#1042
b100000 %
#1043
1$
#1045
0$
b1100000 %
#1046
b1000000 %
#1047
1$
#1049
0$
b1100000 %
#1050
b100000 %
#1051
1$
#1053
0$
b1100000 %
#1054
b1000000 %
#1055
1$
#1057
0$
b1100000 %
#1058
b100000 %
#1059
1$
#1061
0$
#1062
b1000000 %
#1063
1$
#1065
0$
b1100000 %
#1066
b100000 %
#1068
1$
#1070
0$
b1000000 %
#1072
1$
#1074
0$
b100000 %
#1076
1$
#1078
0$
b1000000 %
#1080
1$
#1082
0$
b100000 %
#1084
1$
#1086
0$
b1000000 %
#1088
1$
#1090
0$
b100000 %
#1092
1$
#1094
0$
b1000000 %
#1096
1$
#1098
0$
b100000 %
#1100
1$
#1102
0$
b1000000 %
#1104
1$
#1106
0$
b100000 %
#1108
1$
#1110
0$
b1000000 %
#1112
1$
#1114
0$
b1100000 %
#1115
b100000 %
#1116
1$
#1118
0$
b1100000 %
#1119
b1000000 %
#1120
1$
#1122
0$
b1100000 %
#1123
b100000 %
#1124
1$
#1126
0$
b1100000 %
#1127
b1000000 %
#1128
1$
#1130
0$
b1100000 %
#1131
b100000 %
#1132
1$
#1134
0$
b1100000 %
#1135
b1000000 %
#1136
1$
#1138
0$
b1100000 %
#1139
b100000 %
#1140
1$
#1142
0$
b1100000 %
#1143
b1000000 %
#1144
1$
#1146
0$
b1100000 %
#1147
b100000 %
#1148
1$
#1150
0$
b1100000 %
#1151
b1000000 %
#1152
1$
#1154
0$
b1100000 %
#1155
b100000 %
#1156
1$
#1158
0$
b1100000 %
#1159
b1000000 %
#1160
1$
#1162
0$
b1100000 %
#1163
b100000 %
#1165
1$
#1167
0$
b1000000 %
#1169
1$
#1171
0$
b100000 %
#1173
1$
#1175
0$
b1000000 %
#1177
1$
#1179
0$
b100000 %
#1181
1$
#1183
0$
b1000000 %
#1185
1$
#1187
0$
b100000 %
#1189
1$
#1191
0$
b1000000 %
#1193
1$
#1195
0$
b100000 %
#1197
1$
#1199
0$
b1000000 %
#1201
1$
#1203
0$
b100000 %
#1205
1$
#1207
0$
b1000000 %
#1209
1$
#1211
0$
b1100000 %
#1212
b100000 %
#1213
1$
#1215
0$
b1000000 %
#1217
1$
#1219
0$
b1100000 %
#1220
b100000 %
#1221
1$
#1223
0$
b1100000 %
#1224
b1000000 %
#1225
1$
#1227
0$
b1100000 %
#1228
b100000 %
#1229
1$
#1231
0$
b1100000 %
#1232
b1000000 %
#1233
1$
#1235
0$
b1100000 %
#1236
b100000 %
#1237
1$
#1239
0$
b1100000 %
#1240
b1000000 %
#1241
1$
#1243
0$
b1100000 %
#1244
b100000 %
#1245
1$
#1247
0$
b1100000 %
#1248
b1000000 %
#1249
1$
#1251
0$
b1100000 %
#1252
b100000 %
#1253
1$
#1255
0$
b1100000 %
#1256
b1000000 %
#1257
1$
#1259
0$
b1100000 %
#1260
b100000 %
#1261
1$
#1263
0$
#1264
b1000000 %
#1265
1$
#1267
0$
b1100000 %
#1268
b100000 %
#1270
1$
#1272
0$
b1000000 %
#1274
1$
#1276
0$
b100000 %
#1278
1$
#1280
0$
b1000000 %
#1282
1$
#1284
0$
b100000 %
#1286
1$
#1288
0$
b1000000 %
#1290
1$
#1292
0$
b100000 %
#1294
1$
#1296
0$
b1000000 %
#1298
1$
#1300
0$
b100000 %
#1302
1$
#1304
0$
b1000000 %
#1306
1$
#1308
0$
b100000 %
#1310
1$
#1312
0$
b1000000 %
#1314
1$
#1316
0$
b1100000 %
#1317
b100000 %
#1318
1$
#1320
0$
b1100000 %
#1321
b1000000 %
#1322
1$
#1324
0$
b1100000 %
#1325
b100000 %
#1326
1$
#1328
0$
b1100000 %
#1329
b1000000 %
#1330
1$
#1332
0$
b1100000 %
#1333
b100000 %
#1334
1$
#1336
0$
b1100000 %
#1337
b1000000 %
#1338
1$
#1340
0$
b1100000 %
#1341
b100000 %
#1342
1$
#1344
0$
b1100000 %
#1345
b1000000 %
#1346
1$
#1348
0$
b1100000 %
#1349
b100000 %
#1350
1$
#1352
0$
b1100000 %
#1353
b1000000 %
#1354
1$
#1356
0$
b1100000 %
#1357
b100000 %
#1358
1$
#1360
0$
b1100000 %
#1361
b1000000 %
#1362
1$
#1364
0$
b1100000 %
#1365
b100000 %
#1366
1$
#1369
0$
b1000000 %
#1371
1$
#1373
0$
b100000 %
#1375
1$
#1377
0$
b1000000 %
#1379
1$
#1381
0$
b100000 %
#1383
1$
#1385
0$
b1000000 %
#1387
1$
#1389
0$
b100000 %
#1391
1$
#1393
0$
b1000000 %
#1395
1$
#1397
0$
b100000 %
#1399
1$
#1401
0$
b1000000 %
#1403
1$
#1405
0$
b100000 %
#1407
1$
#1409
0$
b1000000 %
#1411
1$
#1413
0$
b1100000 %
#1414
b100000 %
#1415
1$
#1417
0$
b1000000 %
#1419
1$
#1421
0$
b1100000 %
#1422
b100000 %
#1423
1$
#1425
0$
b1100000 %
#1426
b1000000 %
#1427
1$
#1429
0$
b1100000 %
#1430
b100000 %
#1431
1$
#1433
0$
b1100000 %
#1434
b1000000 %
#1435
1$
#1437
0$
b1100000 %
#1438
b100000 %
#1439
1$
#1441
0$
b1100000 %
#1442
b1000000 %
#1443
1$
#1445
0$
b1100000 %
#1446
b100000 %
#1447
1$
#1449
0$
b1100000 %
#1450
b1000000 %
#1451
1$
#1453
0$
b1100000 %
#1454
b100000 %
#1455
1$
#1457
0$
b1100000 %
#1458
b1000000 %
#1459
1$
#1461
0$
b1100000 %
#1462
b100000 %
#1463
1$
#1465
0$
#1466
b1000000 %
#1467
1$
#1469
0$
b1100000 %
#1470
b100000 %
#1472
1$
#1474
0$
b1000000 %
#1476
1$
#1478
0$
b100000 %
#1480
1$
#1482
0$
b1000000 %
#1484
1$
#1486
0$
b100000 %
#1488
1$
#1490
0$
b1000000 %
#1492
1$
#1494
0$
b100000 %
#1496
1$
#1498
0$
b1000000 %
#1500
1$
#1502
0$
b100000 %
#1504
1$
#1506
0$
b1000000 %
#1508
1$
#1510
0$
b100000 %
#1512
1$
#1514
0$
b1000000 %
#1516
1$
#1518
0$
b1100000 %
#1519
b100000 %
#1520
1$
#1522
0$
b1100000 %
#1523
b1000000 %
#1524
1$
#1526
0$
b1100000 %
#1527
b100000 %
#1528
1$
#1530
0$
b1100000 %
#1531
b1000000 %
#1532
1$
#1534
0$
b1100000 %
#1535
b100000 %
#1536
1$
#1538
0$
b1100000 %
#1539
b1000000 %
#1540
1$
#1542
0$
b1100000 %
#1543
b100000 %
#1544
1$
#1546
0$
b1100000 %
#1547
b1000000 %
#1548
1$
#1550
0$
b1100000 %
#1551
b100000 %
#1552
1$
#1554
0$
b1100000 %
#1555
b1000000 %
#1556
1$
#1558
0$
b1100000 %
#1559
b100000 %
#1560
1$
#1562
0$
b1100000 %
#1563
b1000000 %
#1564
1$
#1566
0$
b1100000 %
#1567
b100000 %
#1569
1$
#1571
0$
b1000000 %
#1573
1$
#1575
0$
b100000 %
#1577
1$
#1579
0$
b1000000 %
#1581
1$
#1583
0$
b100000 %
#1585
1$
#1587
0$
b1000000 %
#1589
1$
#1591
0$
b100000 %
#1593
1$
#1595
0$
b1000000 %
#1597
1$
#1599
0$
b100000 %
#1601
1$
#1603
0$
b1000000 %
#1605
1$
#1607
0$
b100000 %
#1609
1$
#1611
0$
b1000000 %
#1613
1$
#1615
0$
b1100000 %
#1616
b100000 %
#1617
1$
#1619
0$
b1000000 %
#1621
1$
#1623
0$
b1100000 %
#1624
b100000 %
#1625
1$
#1627
0$
b1100000 %
#1628
b1000000 %
#1629
1$
#1631
0$
b1100000 %
#1632
b100000 %
#1633
1$
#1635
0$
b1100000 %
#1636
b1000000 %
#1637
1$
#1639
0$
b1100000 %
#1640
b100000 %
#1641
1$
#1643
0$
b1100000 %
#1644
b1000000 %
#1645
1$
#1647
0$
b1100000 %
#1648
b100000 %
#1649
1$
#1651
0$
b1100000 %
#1652
b1000000 %
#1653
1$
#1655
0$
b1100000 %
#1656
b100000 %
#1657
1$
#1659
0$
b1100000 %
#1660
b1000000 %
#1661
1$
#1663
0$
b1100000 %
#1664
b100000 %
#1665
1$
#1667
0$
#1668
b1000000 %
#1669
1$
#1671
0$
b1100000 %
#1672
b100000 %
#1674
1$
#1676
0$
b1000000 %
#1678
1$
#1680
0$
b100000 %
#1682
1$
#1684
0$
b1000000 %
#1686
1$
#1688
0$
b100000 %
#1690
1$
#1692
0$
b1000000 %
#1694
1$
#1696
0$
b100000 %
#1698
1$
#1700
0$
b1000000 %
#1702
1$
#1704
0$
b100000 %
#1706
1$
#1708
0$
b1000000 %
#1710
1$
#1712
0$
b100000 %
#1714
1$
#1716
0$
b1000000 %
#1718
1$
#1720
0$
b1100000 %
#1721
b100000 %
#1722
1$
#1724
0$
b1100000 %
#1725
b1000000 %
#1726
1$
#1728
0$
b1100000 %
#1729
b100000 %
#1730
1$
#1732
0$
b1100000 %
#1733
b1000000 %
#1734
1$
#1736
0$
b1100000 %
#1737
b100000 %
#1738
1$
#1740
0$
b1100000 %
#1741
b1000000 %
#1742
1$
#1744
0$
b1100000 %
#1745
b100000 %
#1746
1$
#1748
0$
b1100000 %
#1749
b1000000 %
#1750
1$
#1752
0$
b1100000 %
#1753
b100000 %
#1754
1$
#1756
0$
b1100000 %
#1757
b1000000 %
#1758
1$
#1760
0$
b1100000 %
#1761
b100000 %
#1762
1$
#1764
0$
b1100000 %
#1765
b1000000 %
#1766
1$
#1768
0$
b1100000 %
#1769
b100000 %
#1771
1$
#1773
0$
b1000000 %
#1775
1$
#1776
b1100000 %
#1777
0$
b100000 %
#1779
1$
#1781
0$
b1000000 %
#1783
1$
#1785
0$
b100000 %
#1787
1$
#1789
0$
b1000000 %
#1791
1$
#1793
0$
b100000 %
#1795
1$
#1797
0$
b1000000 %
#1799
1$
#1801
0$
b100000 %
#1803
1$
#1805
0$
b1000000 %
#1807
1$
#1809
0$
b100000 %
#1811
1$
#1813
0$
b1000000 %
#1815
1$
#1817
0$
b1100000 %
#1818
b100000 %
#1819
1$
#1821
0$
b1000000 %
#1823
1$
#1825
0$
b1100000 %
#1826
b100000 %
#1827
1$
#1829
0$
b1100000 %
#1830
b1000000 %
#1831
1$
#1833
0$
b1100000 %
#1834
b100000 %
#1835
1$
#1837
0$
b1100000 %
#1838
b1000000 %
#1839
1$
#1841
0$
b1100000 %
