QRNG/XilinxProject/I2C/.Xil/Vivado-22316-DESKTOP-FSTTAJ6/hw_ila_data_1/zip_work/waveform.vcd
$date
        2021-Sep-03 17:34:12
$end
$version
        Vivado v2019.1 (64-bit)
$end
$timescale
        1ps
$end
$scope module dut $end
$var reg 1 " design_1_i/CIS_test_0_o_vsync $end
$var reg 1 # design_1_i/CIS_test_0_o_hsync $end
$var reg 1 $ design_1_i/cis_pclk_1 $end
$var reg 8 % design_1_i/cis_d_1 [7:0] $end
$var reg 32 - design_1_i/CIS_test_0_o_hsync_cnt [31:0] $end
$var reg 32 M design_1_i/CIS_test_0_o_pclk_cnt [31:0] $end
$var reg 1 m _TRIGGER $end
$var reg 1 n _WINDOW $end
$var reg 1 o _GAP $end
$upscope $end
$enddefinitions $end
#0
$dumpvars
1"
1#
0$
b10 %
b110 -
b10011000101110 M
0m
1n
0o
$end
#1
1$
b10011000101111 M
#2
b10011000110000 M
#3
b10011000110001 M
#4
b10011000110010 M
#5
b10011000110011 M
#6
b10011000110100 M
#7
b10011000110101 M
#8
b10011000110110 M
#9
b10011000110111 M
#10
b10011000111000 M
#11
b10011000111001 M
#12
b10011000111010 M
#13
b10011000111011 M
#14
b10011000111100 M
#15
b10011000111101 M
#16
b10011000111110 M
#17
b10011000111111 M
#18
b10011001000000 M
#19
b10011001000001 M
#20
b10011001000010 M
#21
b10011001000011 M
#22
b10011001000100 M
#23
b10011001000101 M
#24
b10011001000110 M
#25
b10011001000111 M
#26
b10011001001000 M
#27
b10011001001001 M
#28
b10011001001010 M
#29
b10011001001011 M
#30
b10011001001100 M
#31
b10011001001101 M
#32
b10011001001110 M
#33
b10011001001111 M
#34
b10011001010000 M
#35
b10011001010001 M
#36
b10011001010010 M
#37
b10011001010011 M
#38
b10011001010100 M
#39
b10011001010101 M
#40
b10011001010110 M
#41
b10011001010111 M
#42
b10011001011000 M
#43
b10011001011001 M
#44
b10011001011010 M
#45
b10011001011011 M
#46
b10011001011100 M
#47
b10011001011101 M
#48
b10011001011110 M
#49
b10011001011111 M
#50
b10011001011100 M
#51
b10011001100000 M
#52
b10011001100001 M
#53
0$
b10011001100010 M
#54
b10011001100011 M
#55
b10011001100100 M
#56
b10011001100101 M
#57
b10011001100110 M
#58
b10011001100111 M
#59
b10011001101000 M
#60
b10011001101001 M
#61
b10011001101010 M
#62
b10011001101011 M
#63
b10011001101100 M
#64
b10011001101101 M
#65
b10011001101110 M
#66
b10011001101111 M
#67
b10011001110000 M
#68
b10011001110001 M
#69
b10011001110010 M
#70
b10011001110011 M
#71
b10011001110100 M
#72
b10011001110101 M
#73
b10011001110110 M
#74
b10011001110111 M
#75
b10011001111000 M
#76
b10011001111001 M
#77
b10011001111010 M
#78
b10011001111011 M
#79
b10011001111100 M
#80
b10011001111101 M
#81
b10011001111110 M
#82
b10011001111111 M
#83
b10011010000000 M
#84
b10011010000001 M
#85
b10011010000010 M
#86
b10011010000011 M
#87
b10011010000100 M
#88
b10011010000101 M
#89
b10011010000110 M
#90
b10011010000111 M
#91
b10011010001000 M
#92
b10011010001001 M
#93
b10011010001010 M
#94
b10011010001011 M
#95
b10011010001100 M
#96
b10011010001101 M
#97
b10011010001110 M
#98
b10011010001111 M
#99
b10011010010000 M
#100
b10011010010001 M
#101
b10011010010010 M
#102
1$
b10011010010011 M
#103
b10011010010100 M
#104
b10011010010101 M
#105
b10011010010110 M
#106
b10011010010111 M
#107
b10011010011000 M
#108
b10011010011001 M
#109
b10011010011010 M
#110
b10011010011011 M
#111
b10011010011100 M
#112
b10011010011101 M
#113
b10011010011110 M
#114
b10011010011111 M
#115
b10011010100000 M
#116
b10011010100001 M
#117
b10011010100010 M
#118
b10011010100011 M
#119
b10011010100100 M
#120
b10011010100101 M
#121
b10011010100110 M
#122
b10011010100111 M
#123
b10011010101000 M
#124
b10011010101001 M
#125
b10011010101010 M
#126
b10011010101011 M
#127
b10011010101100 M
#128
b10011010101101 M
#129
b10011010101110 M
#130
b10011010101111 M
#131
b10011010110000 M
#132
b10011010110001 M
#133
b10011010110010 M
#134
b10011010110011 M
#135
b10011010110100 M
#136
b10011010110101 M
#137
b10011010110110 M
#138
b10011010110111 M
#139
b10011010111000 M
#140
b10011010111001 M
#141
b10011010111010 M
#142
b10011010111011 M
#143
b10011010111100 M
#144
b10011010111101 M
#145
b10011010111110 M
#146
b10011010111111 M
#147
b10011011000000 M
#148
b10011011000001 M
#149
b10011011000010 M
#151
b10011011000011 M
#152
0$
b10011011000100 M
#153
b10011011000101 M
#154
b10011011000110 M
#155
b10011011000111 M
#156
b10011011001000 M
#157
b10011011001001 M
#158
b10011011001010 M
#159
b10011011001011 M
#160
b10011011001100 M
#161
b10011011001101 M
#162
b10011011001110 M
#163
b10011011001111 M
#164
b10011011010000 M
#165
b10011011010001 M
#166
b10011011010010 M
#167
b10011011010011 M
#168
b10011011010100 M
#169
b10011011010101 M
#170
b10011011010110 M
#171
b10011011010111 M
#172
b10011011011000 M
#173
b10011011011001 M
#174
b10011011011010 M
#175
b10011011011011 M
#176
b10011011011100 M
#177
b10011011011101 M
#178
b10011011011110 M
#179
b10011011011111 M
#180
b10011011100000 M
#181
b10011011100001 M
#182
b10011011100010 M
#183
b10011011100011 M
#184
b10011011100100 M
#185
b10011011100101 M
#186
b10011011100110 M
#187
b10011011100111 M
#188
b10011011101000 M
#189
b10011011101001 M
#190
b10011011101010 M
#191
b10011011101011 M
#192
b10011011101100 M
#193
b10011011101101 M
#194
b10011011101110 M
#195
b10011011101111 M
#196
b10011011110000 M
#197
b10011011110001 M
#198
b10011011110010 M
#199
b10011011110011 M
#200
b10011011110100 M
#201
b10011011110101 M
#202
b10011011110110 M
#203
b10011011110111 M
#204
b10011011111000 M
#205
b10011011111001 M
#206
b10011011111010 M
#207
1$
b10011011111011 M
#208
b10011011111100 M
#209
b10011011111101 M
#210
b10011011111110 M
#211
b10011011111111 M
#212
b10011100000000 M
#213
b10011100000001 M
#214
b10011100000010 M
#215
b10011100000011 M
#216
b10011100000100 M
#217
b10011100000101 M
#218
b10011100000110 M
#219
b10011100000111 M
#220
b10011100001000 M
#221
b10011100001001 M
#222
b10011100001010 M
#223
b10011100001011 M
#224
b10011100001100 M
#225
b10011100001101 M
#226
b10011100001110 M
#227
b10011100001111 M
#228
b10011100010000 M
#229
b10011100010001 M
#230
b10011100010010 M
#231
b10011100010011 M
#232
b10011100010100 M
#233
b10011100010101 M
#234
b10011100010110 M
#235
b10011100010111 M
#236
b10011100011000 M
#237
b10011100011001 M
#238
b10011100011010 M
#239
b10011100011011 M
#240
b10011100011100 M
#241
b10011100011101 M
#242
b10011100011110 M
#243
b10011100011111 M
#244
b10011100100000 M
#245
b10011100100001 M
#246
b10011100100010 M
#247
b10011100100011 M
#248
b10011100100100 M
#249
b10011100100101 M
#250
b10011100100110 M
#251
b10011100100111 M
#252
b10011100100100 M
#253
b10011100101000 M
#254
b10011100101001 M
#255
0$
b10011100101010 M
#256
b10011100101011 M
#257
b10011100101100 M
#258
b10011100101101 M
#259
b10011100101110 M
#260
b10011100101111 M
#261
b10011100110000 M
#262
b10011100110001 M
#263
b10011100110010 M
#264
b10011100110011 M
#265
b10011100110100 M
#266
b10011100110101 M
#267
b10011100110110 M
#268
b10011100110111 M
#269
b10011100111000 M
#270
b10011100111001 M
#271
b10011100111010 M
#272
b10011100111011 M
#273
b10011100111100 M
#274
b10011100111101 M
#275
b10011100111110 M
#276
b10011100111111 M
#277
b10011101000000 M
#278
b10011101000001 M
#279
b10011101000010 M
#280
b10011101000011 M
#281
b10011101000100 M
#282
b10011101000101 M
#283
b10011101000110 M
#284
b10011101000111 M
#285
b10011101001000 M
#286
b10011101001001 M
#287
b10011101001010 M
#288
b10011101001011 M
#289
b10011101001100 M
#290
b10011101001101 M
#291
b10011101001110 M
#292
b10011101001111 M
#293
b10011101010000 M
#294
b10011101010001 M
#295
b10011101010010 M
#296
b10011101010011 M
#297
b10011101010100 M
#298
b10011101010101 M
#299
b10011101010110 M
#300
b10011101010111 M
#301
b10011101011000 M
#302
b10011101011001 M
#303
b10011101011010 M
#304
b10011101011011 M
#305
1$
b10011101011100 M
#306
b10011101011101 M
#307
b10011101011110 M
#308
b10011101011111 M
#309
b10011101100000 M
#310
b10011101100001 M
#311
b10011101100010 M
#312
b10011101100011 M
#313
b10011101100100 M
#314
b10011101100101 M
#315
b10011101100110 M
#316
b10011101100111 M
#317
b10011101101000 M
#318
b10011101101001 M
#319
b10011101101010 M
#320
b10011101101011 M
#321
b10011101101100 M
#322
b10011101101101 M
#323
b10011101101110 M
#324
b10011101101111 M
#325
b10011101110000 M
#326
b10011101110001 M
#327
b10011101110010 M
#328
b10011101110011 M
#329
b10011101110100 M
#330
b10011101110101 M
#331
b10011101110110 M
#332
b10011101110111 M
#333
b10011101111000 M
#334
b10011101111001 M
#335
b10011101111010 M
#336
b10011101111011 M
#337
b10011101111100 M
#338
b10011101111101 M
#339
b10011101111110 M
#340
b10011101111111 M
#341
b10011110000000 M
#342
b10011110000001 M
#343
b10011110000010 M
#344
b10011110000011 M
#345
b10011110000100 M
#346
b10011110000101 M
#347
b10011110000110 M
#348
b10011110000111 M
#349
b10011110001000 M
#350
b10011110001001 M
#351
b10011110001010 M
#353
b10011110001011 M
#354
0$
b10011110001100 M
#355
b10011110001101 M
#356
b10011110001110 M
#357
b10011110001111 M
#358
b10011110010000 M
#359
b10011110010001 M
#360
b10011110010010 M
#361
b10011110010011 M
#362
b10011110010100 M
#363
b10011110010101 M
#364
b10011110010110 M
#365
b10011110010111 M
#366
b10011110011000 M
#367
b10011110011001 M
#368
b10011110011010 M
#369
b10011110011011 M
#370
b10011110011100 M
#371
b10011110011101 M
#372
b10011110011110 M
#373
b10011110011111 M
#374
b10011110100000 M
#375
b10011110100001 M
#376
b10011110100010 M
#377
b10011110100011 M
#378
b10011110100100 M
#379
b10011110100101 M
#380
b10011110100110 M
#381
b10011110100111 M
#382
b10011110101000 M
#383
b10011110101001 M
#384
b10011110101010 M
#385
b10011110101011 M
#386
b10011110101100 M
#387
b10011110101101 M
#388
b10011110101110 M
#389
b10011110101111 M
#390
b10011110110000 M
#391
b10011110110001 M
#392
b10011110110010 M
#393
b10011110110011 M
#394
b10011110110100 M
#395
b10011110110101 M
#396
b10011110110110 M
#397
b10011110110111 M
#398
b10011110111000 M
#399
b10011110111001 M
#400
b10011110111010 M
#401
b10011110111011 M
#402
b10011110111100 M
#403
b10011110111101 M
#404
b10011110111110 M
#405
b10011110111111 M
#406
b10011111000000 M
#407
b10011111000001 M
#408
1$
b10011111000010 M
#409
b10011111000011 M
#410
b10011111000100 M
#411
b10011111000101 M
#412
b10011111000110 M
#413
b10011111000111 M
#414
b10011111001000 M
#415
b10011111001001 M
#416
b10011111001010 M
#417
b10011111001011 M
#418
b10011111001100 M
#419
b10011111001101 M
#420
b10011111001110 M
#421
b10011111001111 M
#422
b10011111010000 M
#423
b10011111010001 M
#424
b10011111010010 M
#425
b10011111010011 M
#426
b10011111010100 M
#427
b10011111010101 M
#428
b10011111010110 M
#429
b10011111010111 M
#430
b10011111011000 M
#431
b10011111011001 M
#432
b10011111011010 M
#433
b10011111011011 M
#434
b10011111011100 M
#435
b10011111011101 M
#436
b10011111011110 M
#437
b10011111011111 M
#438
b10011111100000 M
#439
b10011111100001 M
#440
b10011111100010 M
#441
b10011111100011 M
#442
b10011111100100 M
#443
b10011111100101 M
#444
b10011111100110 M
#445
b10011111100111 M
#446
b10011111101000 M
#447
b10011111101001 M
#448
b10011111101010 M
#449
b10011111101011 M
#450
b10011111101100 M
#451
b10011111101101 M
#452
b10011111101110 M
#453
b10011111101111 M
#454
b10011111101101 M
#455
b10011111110000 M
#456
0$
b10011111110001 M
#457
b10011111110010 M
#458
b10011111110011 M
#459
b10011111110100 M
#460
b10011111110101 M
#461
b10011111110110 M
#462
b10011111110111 M
#463
b10011111111000 M
#464
b10011111111001 M
#465
b10011111111010 M
#466
b10011111111011 M
#467
b10011111111100 M
#468
b10011111111101 M
#469
b10011111111110 M
#470
b10011111111111 M
#471
b10100000000000 M
#472
b10100000000001 M
#473
b10100000000010 M
#474
b10100000000011 M
#475
b10100000000100 M
#476
b10100000000101 M
#477
b10100000000110 M
#478
b10100000000111 M
#479
b10100000001000 M
#480
b10100000001001 M
#481
b10100000001010 M
#482
b10100000001011 M
#483
b10100000001100 M
#484
b10100000001101 M
#485
b10100000001110 M
#486
b10100000001111 M
#487
b10100000010000 M
#488
b10100000010001 M
#489
b10100000010010 M
#490
b10100000010011 M
#491
b10100000010100 M
#492
b10100000010101 M
#493
b10100000010110 M
#494
b10100000010111 M
#495
b10100000011000 M
#496
b10100000011001 M
#497
b10100000011010 M
#498
b10100000011011 M
#499
b10100000011100 M
#500
b10100000011101 M
#501
b10100000011110 M
#502
b10100000011111 M
#503
b10100000100000 M
#504
b10100000100001 M
#505
b10100000100010 M
#506
1$
b10100000100011 M
#507
b10100000100100 M
#508
b10100000100101 M
#509
b10100000100110 M
#510
b10100000100111 M
#511
b10100000101000 M
#512
b10100000101001 M
#513
b10100000101010 M
#514
b10100000101011 M
#515
b10100000101100 M
#516
b10100000101101 M
#517
b10100000101110 M
#518
b10100000101111 M
#519
b10100000110000 M
#520
b10100000110001 M
#521
b10100000110010 M
#522
b10100000110011 M
#523
b10100000110100 M
#524
b10100000110101 M
#525
b10100000110110 M
#526
b10100000110111 M
#527
b10100000111000 M
#528
b10100000111001 M
#529
b10100000111010 M
#530
b10100000111011 M
#531
b10100000111100 M
#532
b10100000111101 M
#533
b10100000111110 M
#534
b10100000111111 M
#535
b10100001000000 M
#536
b10100001000001 M
#537
b10100001000010 M
#538
b10100001000011 M
#539
b10100001000100 M
#540
b10100001000101 M
#541
b10100001000110 M
#542
b10100001000111 M
#543
b10100001001000 M
#544
b10100001001001 M
#545
b10100001001010 M
#546
b10100001001011 M
#547
b10100001001100 M
#548
b10100001001101 M
#549
b10100001001110 M
#550
b10100001001111 M
#551
b10100001010000 M
#552
b10100001010001 M
#553
b10100001010010 M
#554
b10100001010011 M
#555
b10100001010000 M
#556
b10100001010100 M
#557
b10100001010101 M
#558
0$
b10100001010110 M
#559
b10100001010111 M
#560
b10100001011000 M
#561
b10100001011001 M
#562
b10100001011010 M
#563
b10100001011011 M
#564
b10100001011100 M
#565
b10100001011101 M
#566
b10100001011110 M
#567
b10100001011111 M
#568
b10100001100000 M
#569
b10100001100001 M
#570
b10100001100010 M
#571
b10100001100011 M
#572
b10100001100100 M
#573
b10100001100101 M
#574
b10100001100110 M
#575
b10100001100111 M
#576
b10100001101000 M
#577
b10100001101001 M
#578
b10100001101010 M
#579
b10100001101011 M
#580
b10100001101100 M
#581
b10100001101101 M
#582
b10100001101110 M
#583
b10100001101111 M
#584
b10100001110000 M
#585
b10100001110001 M
#586
b10100001110010 M
#587
b10100001110011 M
#588
b10100001110100 M
#589
b10100001110101 M
#590
b10100001110110 M
#591
b10100001110111 M
#592
b10100001111000 M
#593
b10100001111001 M
#594
b10100001111010 M
#595
b10100001111011 M
#596
b10100001111100 M
#597
b10100001111101 M
#598
b10100001111110 M
#599
b10100001111111 M
#600
b10100010000000 M
#601
b10100010000001 M
#602
b10100010000010 M
#603
b10100010000011 M
#604
b10100010000100 M
#605
b10100010000101 M
#606
b10100010000110 M
#607
b10100010000111 M
#608
b10100010001000 M
#609
1$
b10100010001001 M
#610
b10100010001010 M
#611
b10100010001011 M
#612
b10100010001100 M
#613
b10100010001101 M
#614
b10100010001110 M
#615
b10100010001111 M
#616
b10100010010000 M
#617
b10100010010001 M
#618
b10100010010010 M
#619
b10100010010011 M
#620
b10100010010100 M
#621
b10100010010101 M
#622
b10100010010110 M
#623
b10100010010111 M
#624
b10100010011000 M
#625
b10100010011001 M
#626
b10100010011010 M
#627
b10100010011011 M
#628
b10100010011100 M
#629
b10100010011101 M
#630
b10100010011110 M
#631
b10100010011111 M
#632
b10100010100000 M
#633
b10100010100001 M
#634
b10100010100010 M
#635
b10100010100011 M
#636
b10100010100100 M
#637
b10100010100101 M
#638
b10100010100110 M
#639
b10100010100111 M
#640
b10100010101000 M
#641
b10100010101001 M
#642
b10100010101010 M
#643
b10100010101011 M
#644
b10100010101100 M
#645
b10100010101101 M
#646
b10100010101110 M
#647
b10100010101111 M
#648
b10100010110000 M
#649
b10100010110001 M
#650
b10100010110010 M
#651
b10100010110011 M
#652
b10100010110100 M
#653
b10100010110101 M
#654
b10100010110111 M
#655
b10100010110110 M
#656
b10100010110111 M
#657
0$
b10100010111000 M
#658
b10100010111001 M
#659
b10100010111010 M
#660
b10100010111011 M
#661
b10100010111100 M
#662
b10100010111101 M
#663
b10100010111110 M
#664
b10100010111111 M
#665
b10100011000000 M
#666
b10100011000001 M
#667
b10100011000010 M
#668
b10100011000011 M
#669
b10100011000100 M
#670
b10100011000101 M
#671
b10100011000110 M
#672
b10100011000111 M
#673
b10100011001000 M
#674
b10100011001001 M
#675
b10100011001010 M
#676
b10100011001011 M
#677
b10100011001100 M
#678
b10100011001101 M
#679
b10100011001110 M
#680
b10100011001111 M
#681
b10100011010000 M
#682
b10100011010001 M
#683
b10100011010010 M
#684
b10100011010011 M
#685
b10100011010100 M
#686
b10100011010101 M
#687
b10100011010110 M
#688
b10100011010111 M
#689
b10100011011000 M
#690
b10100011011001 M
#691
b10100011011010 M
#692
b10100011011011 M
#693
b10100011011100 M
#694
b10100011011101 M
#695
b10100011011110 M
#696
b10100011011111 M
#697
b10100011100000 M
#698
b10100011100001 M
#699
b10100011100010 M
#700
b10100011100011 M
#701
b10100011100100 M
#702
b10100011100101 M
#703
b10100011100110 M
#704
b10100011100111 M
#705
b10100011101000 M
#706
b10100011101001 M
#707
b10100011101010 M
#708
1$
b10100011101011 M
#709
b10100011101100 M
#710
b10100011101101 M
#711
b10100011101110 M
#712
b10100011101111 M
#713
b10100011110000 M
#714
b10100011110001 M
#715
b10100011110010 M
#716
b10100011110011 M
#717
b10100011110100 M
#718
b10100011110101 M
#719
b10100011110110 M
#720
b10100011110111 M
#721
b10100011111000 M
#722
b10100011111001 M
#723
b10100011111010 M
#724
b10100011111011 M
#725
b10100011111100 M
#726
b10100011111101 M
#727
b10100011111110 M
#728
b10100011111111 M
#729
b10100100000000 M
#730
b10100100000001 M
#731
b10100100000010 M
#732
b10100100000011 M
#733
b10100100000100 M
#734
b10100100000101 M
#735
b10100100000110 M
#736
b10100100000111 M
#737
b10100100001000 M
#738
b10100100001001 M
#739
b10100100001010 M
#740
b10100100001011 M
#741
b10100100001100 M
#742
b10100100001101 M
#743
b10100100001110 M
#744
b10100100001111 M
#745
b10100100010000 M
#746
b10100100010001 M
#747
b10100100010010 M
#748
b10100100010011 M
#749
b10100100010100 M
#750
b10100100010101 M
#751
b10100100010110 M
#752
b10100100010111 M
#753
b10100100011000 M
#754
b10100100011001 M
#755
b10100100011010 M
#756
b10100100011011 M
#757
b10100100011000 M
#758
b10100100011101 M
#759
b10100100011111 M
#760
b10100100011110 M
#761
0$
b10100100011111 M
#762
b10100100100000 M
#763
b10100100100001 M
#764
b10100100100010 M
#765
b10100100100011 M
#766
b10100100100100 M
#767
b10100100100101 M
#768
b10100100100110 M
#769
b10100100100111 M
#770
b10100100101000 M
#771
b10100100101001 M
#772
b10100100101010 M
#773
b10100100101011 M
#774
b10100100101100 M
#775
b10100100101101 M
#776
b10100100101110 M
#777
b10100100101111 M
#778
b10100100110000 M
#779
b10100100110001 M
#780
b10100100110010 M
#781
b10100100110011 M
#782
b10100100110100 M
#783
b10100100110101 M
#784
b10100100110110 M
#785
b10100100110111 M
#786
b10100100111000 M
#787
b10100100111001 M
#788
b10100100111010 M
#789
b10100100111011 M
#790
b10100100111100 M
#791
b10100100111101 M
#792
b10100100111110 M
#793
b10100100111111 M
#794
b10100101000000 M
#795
b10100101000001 M
#796
b10100101000010 M
#797
b10100101000011 M
#798
b10100101000100 M
#799
b10100101000101 M
#800
b10100101000110 M
#801
b10100101000111 M
#802
b10100101001000 M
#803
b10100101001001 M
#804
b10100101001010 M
#805
b10100101001011 M
#806
b10100101001100 M
#807
b10100101001101 M
#808
b10100101001110 M
#809
b10100101001111 M
#810
b10100101010000 M
#811
1$
b10100101010001 M
#812
b10100101010010 M
#813
b10100101010011 M
#814
b10100101010100 M
#815
b10100101010101 M
#816
b10100101010110 M
#817
b10100101010111 M
#818
b10100101011000 M
#819
b10100101011001 M
#820
b10100101011010 M
#821
b10100101011011 M
#822
b10100101011100 M
#823
b10100101011101 M
#824
b10100101011110 M
#825
b10100101011111 M
#826
b10100101100000 M
#827
b10100101100001 M
#828
b10100101100010 M
#829
b10100101100011 M
#830
b10100101100100 M
#831
b10100101100101 M
#832
b10100101100110 M
#833
b10100101100111 M
#834
b10100101101000 M
#835
b10100101101001 M
#836
b10100101101010 M
#837
b10100101101011 M
#838
b10100101101100 M
#839
b10100101101101 M
#840
b10100101101110 M
#841
b10100101101111 M
#842
b10100101110000 M
#843
b10100101110001 M
#844
b10100101110010 M
#845
b10100101110011 M
#846
b10100101110100 M
#847
b10100101110101 M
#848
b10100101110110 M
#849
b10100101110111 M
#850
b10100101111000 M
#851
b10100101111001 M
#852
b10100101111010 M
#853
b10100101111011 M
#854
b10100101111100 M
#855
b10100101111101 M
#856
b10100101111110 M
#858
b10100101111111 M
#859
b10100110000000 M
#860
0$
b10100110000001 M
#861
b10100110000010 M
#862
b10100110000011 M
#863
b10100110000100 M
#864
b10100110000101 M
#865
b10100110000110 M
#866
b10100110000111 M
#867
b10100110001000 M
#868
b10100110001001 M
#869
b10100110001010 M
#870
b10100110001011 M
#871
b10100110001100 M
#872
b10100110001101 M
#873
b10100110001110 M
#874
b10100110001111 M
#875
b10100110010000 M
#876
b10100110010001 M
#877
b10100110010010 M
#878
b10100110010011 M
#879
b10100110010100 M
#880
b10100110010101 M
#881
b10100110010110 M
#882
b10100110010111 M
#883
b10100110011000 M
#884
b10100110011001 M
#885
b10100110011010 M
#886
b10100110011011 M
#887
b10100110011100 M
#888
b10100110011101 M
#889
b10100110011110 M
#890
b10100110011111 M
#891
b10100110100000 M
#892
b10100110100001 M
#893
b10100110100010 M
#894
b10100110100011 M
#895
b10100110100100 M
#896
b10100110100101 M
#897
b10100110100110 M
#898
b10100110100111 M
#899
b10100110101000 M
#900
b10100110101001 M
#901
b10100110101010 M
#902
b10100110101011 M
#903
b10100110101100 M
#904
b10100110101101 M
#905
b10100110101110 M
#906
b10100110101111 M
#907
b10100110110000 M
#908
b10100110110001 M
#909
1$
b10100110110010 M
#910
b10100110110011 M
#911
b10100110110100 M
#912
b10100110110101 M
#913
b10100110110110 M
#914
b10100110110111 M
#915
b10100110111000 M
#916
b10100110111001 M
#917
b10100110111010 M
#918
b10100110111011 M
#919
b10100110111100 M
#920
b10100110111101 M
#921
b10100110111110 M
#922
b10100110111111 M
#923
b10100111000000 M
#924
b10100111000001 M
#925
b10100111000010 M
#926
b10100111000011 M
#927
b10100111000100 M
#928
b10100111000101 M
#929
b10100111000110 M
#930
b10100111000111 M
#931
b10100111001000 M
#932
b10100111001001 M
#933
b10100111001010 M
#934
b10100111001011 M
#935
b10100111001100 M
#936
b10100111001101 M
#937
b10100111001110 M
#938
b10100111001111 M
#939
b10100111010000 M
#940
b10100111010001 M
#941
b10100111010010 M
#942
b10100111010011 M
#943
b10100111010100 M
#944
b10100111010101 M
#945
b10100111010110 M
#946
b10100111010111 M
#947
b10100111011000 M
#948
b10100111011001 M
#949
b10100111011010 M
#950
b10100111011011 M
#951
b10100111011100 M
#952
b10100111011101 M
#953
b10100111011110 M
#954
b10100111011111 M
#955
b10100111100000 M
#956
b10100111100001 M
#957
b10100111100010 M
#958
b10100111100011 M
#959
b10100111100001 M
#960
b10100111100100 M
#961
b10100111100101 M
#962
0$
b10100111100110 M
#963
b10100111100111 M
#964
b10100111101000 M
#965
b10100111101001 M
#966
b10100111101010 M
#967
b10100111101011 M
#968
b10100111101100 M
#969
b10100111101101 M
#970
b10100111101110 M
#971
b10100111101111 M
#972
b10100111110000 M
#973
b10100111110001 M
#974
b10100111110010 M
#975
b10100111110011 M
#976
b10100111110100 M
#977
b10100111110101 M
#978
b10100111110110 M
#979
b10100111110111 M
#980
b10100111111000 M
#981
b10100111111001 M
#982
b10100111111010 M
#983
b10100111111011 M
#984
b10100111111100 M
#985
b10100111111101 M
#986
b10100111111110 M
#987
b10100111111111 M
#988
b10101000000000 M
#989
b10101000000001 M
#990
b10101000000010 M
#991
b10101000000011 M
#992
b10101000000100 M
#993
b10101000000101 M
#994
b10101000000110 M
#995
b10101000000111 M
#996
b10101000001000 M
#997
b10101000001001 M
#998
b10101000001010 M
#999
b10101000001011 M
#1000
b10101000001100 M
#1001
b10101000001101 M
#1002
b10101000001110 M
#1003
b10101000001111 M
#1004
b10101000010000 M
#1005
b10101000010001 M
#1006
b10101000010010 M
#1007
b10101000010011 M
#1008
b10101000010100 M
#1009
b10101000010101 M
#1010
b10101000010110 M
#1011
b10101000010111 M
#1012
b10101000011000 M
#1013
b10101000011001 M
#1014
1$
b10101000011010 M
#1015
b10101000011011 M
#1016
b10101000011100 M
#1017
b10101000011101 M
#1018
b10101000011110 M
#1019
b10101000011111 M
#1020
b10101000100000 M
#1021
b10101000100001 M
#1022
b10101000100010 M
#1023
b10101000100011 M
#1024
b10101000100100 M
#1025
b10101000100101 M
#1026
b10101000100110 M
#1027
b10101000100111 M
#1028
b10101000101000 M
#1029
b10101000101001 M
#1030
b10101000101010 M
#1031
b10101000101011 M
#1032
b10101000101100 M
#1033
b10101000101101 M
#1034
b10101000101110 M
#1035
b10101000101111 M
#1036
b10101000110000 M
#1037
b10101000110001 M
#1038
b10101000110010 M
#1039
b10101000110011 M
#1040
b10101000110100 M
#1041
b10101000110101 M
#1042
b10101000110110 M
#1043
b10101000110111 M
#1044
b10101000111000 M
#1045
b10101000111001 M
#1046
b10101000111010 M
#1047
b10101000111011 M
#1048
b10101000111100 M
#1049
b10101000111101 M
#1050
b10101000111110 M
#1051
b10101000111111 M
#1052
b10101001000000 M
#1053
b10101001000001 M
#1054
b10101001000010 M
#1055
b10101001000011 M
#1056
b10101001000100 M
#1057
b10101001000101 M
#1058
b10101001000110 M
#1060
b10101001000111 M
#1061
b10101001001000 M
#1062
0$
b10101001001001 M
#1063
b10101001001010 M
#1064
b10101001001011 M
#1065
b10101001001100 M
#1066
b10101001001101 M
#1067
b10101001001110 M
#1068
b10101001001111 M
#1069
b10101001010000 M
#1070
b10101001010001 M
#1071
b10101001010010 M
#1072
b10101001010011 M
#1073
b10101001010100 M
#1074
b10101001010101 M
#1075
b10101001010110 M
#1076
b10101001010111 M
#1077
b10101001011000 M
#1078
b10101001011001 M
#1079
b10101001011010 M
#1080
b10101001011011 M
#1081
b10101001011100 M
#1082
b10101001011101 M
#1083
b10101001011110 M
#1084
b10101001011111 M
#1085
b10101001100000 M
#1086
b10101001100001 M
#1087
b10101001100010 M
#1088
b10101001100011 M
#1089
b10101001100100 M
#1090
b10101001100101 M
#1091
b10101001100110 M
#1092
b10101001100111 M
#1093
b10101001101000 M
#1094
b10101001101001 M
#1095
b10101001101010 M
#1096
b10101001101011 M
#1097
b10101001101100 M
#1098
b10101001101101 M
#1099
b10101001101110 M
#1100
b10101001101111 M
#1101
b10101001110000 M
#1102
b10101001110001 M
#1103
b10101001110010 M
#1104
b10101001110011 M
#1105
b10101001110100 M
#1106
b10101001110101 M
#1107
b10101001110110 M
#1108
b10101001110111 M
#1109
b10101001111000 M
#1110
b10101001111001 M
#1111
b10101001111010 M
#1112
b10101001111011 M
#1113
b10101001111100 M
#1114
1$
b10101001111101 M
#1115
b10101001111110 M
#1116
b10101001111111 M
#1117
b10101010000000 M
#1118
b10101010000001 M
#1119
b10101010000010 M
#1120
b10101010000011 M
#1121
b10101010000100 M
#1122
b10101010000101 M
#1123
b10101010000110 M
#1124
b10101010000111 M
#1125
b10101010001000 M
#1126
b10101010001001 M
#1127
b10101010001010 M
#1128
b10101010001011 M
#1129
b10101010001100 M
#1130
b10101010001101 M
#1131
b10101010001110 M
#1132
b10101010001111 M
#1133
b10101010010000 M
#1134
b10101010010001 M
#1135
b10101010010010 M
#1136
b10101010010011 M
#1137
b10101010010100 M
#1138
b10101010010101 M
#1139
b10101010010110 M
#1140
b10101010010111 M
#1141
b10101010011000 M
#1142
b10101010011001 M
#1143
b10101010011010 M
#1144
b10101010011011 M
#1145
b10101010011100 M
#1146
b10101010011101 M
#1147
b10101010011110 M
#1148
b10101010011111 M
#1149
b10101010100000 M
#1150
b10101010100001 M
#1151
b10101010100010 M
#1152
b10101010100011 M
#1153
b10101010100100 M
#1154
b10101010100101 M
#1155
b10101010100110 M
#1156
b10101010100111 M
#1157
b10101010101000 M
#1158
b10101010101001 M
#1159
b10101010101010 M
#1160
b10101010101011 M
#1161
b10101010101100 M
#1162
b10101010101101 M
#1163
b10101010101111 M
#1164
b10101010101110 M
#1165
0$
b10101010101111 M
#1166
b10101010110000 M
#1167
b10101010110001 M
#1168
b10101010110010 M
#1169
b10101010110011 M
#1170
b10101010110100 M
#1171
b10101010110101 M
#1172
b10101010110110 M
#1173
b10101010110111 M
#1174
b10101010111000 M
#1175
b10101010111001 M
#1176
b10101010111010 M
#1177
b10101010111011 M
#1178
b10101010111100 M
#1179
b10101010111101 M
#1180
b10101010111110 M
#1181
b10101010111111 M
#1182
b10101011000000 M
#1183
b10101011000001 M
#1184
b10101011000010 M
#1185
b10101011000011 M
#1186
b10101011000100 M
#1187
b10101011000101 M
#1188
b10101011000110 M
#1189
b10101011000111 M
#1190
b10101011001000 M
#1191
b10101011001001 M
#1192
b10101011001010 M
#1193
b10101011001011 M
#1194
b10101011001100 M
